<?xml version="1.0" encoding="utf-8" standalone="no"?>
<!DOCTYPE svg PUBLIC "-//W3C//DTD SVG 1.1//EN"
  "http://www.w3.org/Graphics/SVG/1.1/DTD/svg11.dtd">
<!-- Created with matplotlib (https://matplotlib.org/) -->
<svg height="432pt" version="1.1" viewBox="0 0 576 432" width="576pt" xmlns="http://www.w3.org/2000/svg" xmlns:xlink="http://www.w3.org/1999/xlink">
 <defs>
  <style type="text/css">
*{stroke-linecap:butt;stroke-linejoin:round;}
  </style>
 </defs>
 <g id="figure_1">
  <g id="patch_1">
   <path d="M 0 432 
L 576 432 
L 576 0 
L 0 0 
z
" style="fill:#ffffff;"/>
  </g>
  <g id="axes_1">
   <g id="patch_2">
    <path d="M 309.6875 390.04 
L 558.391441 390.04 
L 558.391441 34.92 
L 309.6875 34.92 
z
" style="fill:#ffffff;"/>
   </g>
   <g id="patch_3">
    <path clip-path="url(#pd260ba83a4)" d="M 309.6875 373.898182 
L 411.660327 373.898182 
L 411.660327 352.010971 
L 309.6875 352.010971 
z
" style="fill:#1f77b4;"/>
   </g>
   <g id="patch_4">
    <path clip-path="url(#pd260ba83a4)" d="M 309.6875 346.539168 
L 447.450926 346.539168 
L 447.450926 324.651957 
L 309.6875 324.651957 
z
" style="fill:#1f77b4;"/>
   </g>
   <g id="patch_5">
    <path clip-path="url(#pd260ba83a4)" d="M 309.6875 319.180154 
L 502.62723 319.180154 
L 502.62723 297.292943 
L 309.6875 297.292943 
z
" style="fill:#1f77b4;"/>
   </g>
   <g id="patch_6">
    <path clip-path="url(#pd260ba83a4)" d="M 309.6875 291.82114 
L 503.033551 291.82114 
L 503.033551 269.933929 
L 309.6875 269.933929 
z
" style="fill:#1f77b4;"/>
   </g>
   <g id="patch_7">
    <path clip-path="url(#pd260ba83a4)" d="M 309.6875 264.462126 
L 503.80138 264.462126 
L 503.80138 242.574915 
L 309.6875 242.574915 
z
" style="fill:#1f77b4;"/>
   </g>
   <g id="patch_8">
    <path clip-path="url(#pd260ba83a4)" d="M 309.6875 237.103112 
L 511.328347 237.103112 
L 511.328347 215.215901 
L 309.6875 215.215901 
z
" style="fill:#1f77b4;"/>
   </g>
   <g id="patch_9">
    <path clip-path="url(#pd260ba83a4)" d="M 309.6875 209.744099 
L 514.846922 209.744099 
L 514.846922 187.856888 
L 309.6875 187.856888 
z
" style="fill:#1f77b4;"/>
   </g>
   <g id="patch_10">
    <path clip-path="url(#pd260ba83a4)" d="M 309.6875 182.385085 
L 523.826215 182.385085 
L 523.826215 160.497874 
L 309.6875 160.497874 
z
" style="fill:#1f77b4;"/>
   </g>
   <g id="patch_11">
    <path clip-path="url(#pd260ba83a4)" d="M 309.6875 155.026071 
L 528.672594 155.026071 
L 528.672594 133.13886 
L 309.6875 133.13886 
z
" style="fill:#1f77b4;"/>
   </g>
   <g id="patch_12">
    <path clip-path="url(#pd260ba83a4)" d="M 309.6875 127.667057 
L 528.829727 127.667057 
L 528.829727 105.779846 
L 309.6875 105.779846 
z
" style="fill:#1f77b4;"/>
   </g>
   <g id="patch_13">
    <path clip-path="url(#pd260ba83a4)" d="M 309.6875 100.308043 
L 529.0989 100.308043 
L 529.0989 78.420832 
L 309.6875 78.420832 
z
" style="fill:#1f77b4;"/>
   </g>
   <g id="patch_14">
    <path clip-path="url(#pd260ba83a4)" d="M 309.6875 72.949029 
L 546.532589 72.949029 
L 546.532589 51.061818 
L 309.6875 51.061818 
z
" style="fill:#1f77b4;"/>
   </g>
   <g id="matplotlib.axis_1">
    <g id="xtick_1">
     <g id="line2d_1">
      <defs>
       <path d="M 0 0 
L 0 3.5 
" id="m84fe095f4f" style="stroke:#000000;stroke-width:0.8;"/>
      </defs>
      <g>
       <use style="stroke:#000000;stroke-width:0.8;" x="309.6875" xlink:href="#m84fe095f4f" y="390.04"/>
      </g>
     </g>
     <g id="text_1">
      <!-- 0.00 -->
      <defs>
       <path d="M 31.78125 66.40625 
Q 24.171875 66.40625 20.328125 58.90625 
Q 16.5 51.421875 16.5 36.375 
Q 16.5 21.390625 20.328125 13.890625 
Q 24.171875 6.390625 31.78125 6.390625 
Q 39.453125 6.390625 43.28125 13.890625 
Q 47.125 21.390625 47.125 36.375 
Q 47.125 51.421875 43.28125 58.90625 
Q 39.453125 66.40625 31.78125 66.40625 
z
M 31.78125 74.21875 
Q 44.046875 74.21875 50.515625 64.515625 
Q 56.984375 54.828125 56.984375 36.375 
Q 56.984375 17.96875 50.515625 8.265625 
Q 44.046875 -1.421875 31.78125 -1.421875 
Q 19.53125 -1.421875 13.0625 8.265625 
Q 6.59375 17.96875 6.59375 36.375 
Q 6.59375 54.828125 13.0625 64.515625 
Q 19.53125 74.21875 31.78125 74.21875 
z
" id="DejaVuSans-48"/>
       <path d="M 10.6875 12.40625 
L 21 12.40625 
L 21 0 
L 10.6875 0 
z
" id="DejaVuSans-46"/>
      </defs>
      <g transform="translate(298.554688 404.638438)scale(0.1 -0.1)">
       <use xlink:href="#DejaVuSans-48"/>
       <use x="63.623047" xlink:href="#DejaVuSans-46"/>
       <use x="95.410156" xlink:href="#DejaVuSans-48"/>
       <use x="159.033203" xlink:href="#DejaVuSans-48"/>
      </g>
     </g>
    </g>
    <g id="xtick_2">
     <g id="line2d_2">
      <g>
       <use style="stroke:#000000;stroke-width:0.8;" x="350.746637" xlink:href="#m84fe095f4f" y="390.04"/>
      </g>
     </g>
     <g id="text_2">
      <!-- 0.05 -->
      <defs>
       <path d="M 10.796875 72.90625 
L 49.515625 72.90625 
L 49.515625 64.59375 
L 19.828125 64.59375 
L 19.828125 46.734375 
Q 21.96875 47.46875 24.109375 47.828125 
Q 26.265625 48.1875 28.421875 48.1875 
Q 40.625 48.1875 47.75 41.5 
Q 54.890625 34.8125 54.890625 23.390625 
Q 54.890625 11.625 47.5625 5.09375 
Q 40.234375 -1.421875 26.90625 -1.421875 
Q 22.3125 -1.421875 17.546875 -0.640625 
Q 12.796875 0.140625 7.71875 1.703125 
L 7.71875 11.625 
Q 12.109375 9.234375 16.796875 8.0625 
Q 21.484375 6.890625 26.703125 6.890625 
Q 35.15625 6.890625 40.078125 11.328125 
Q 45.015625 15.765625 45.015625 23.390625 
Q 45.015625 31 40.078125 35.4375 
Q 35.15625 39.890625 26.703125 39.890625 
Q 22.75 39.890625 18.8125 39.015625 
Q 14.890625 38.140625 10.796875 36.28125 
z
" id="DejaVuSans-53"/>
      </defs>
      <g transform="translate(339.613825 404.638438)scale(0.1 -0.1)">
       <use xlink:href="#DejaVuSans-48"/>
       <use x="63.623047" xlink:href="#DejaVuSans-46"/>
       <use x="95.410156" xlink:href="#DejaVuSans-48"/>
       <use x="159.033203" xlink:href="#DejaVuSans-53"/>
      </g>
     </g>
    </g>
    <g id="xtick_3">
     <g id="line2d_3">
      <g>
       <use style="stroke:#000000;stroke-width:0.8;" x="391.805775" xlink:href="#m84fe095f4f" y="390.04"/>
      </g>
     </g>
     <g id="text_3">
      <!-- 0.10 -->
      <defs>
       <path d="M 12.40625 8.296875 
L 28.515625 8.296875 
L 28.515625 63.921875 
L 10.984375 60.40625 
L 10.984375 69.390625 
L 28.421875 72.90625 
L 38.28125 72.90625 
L 38.28125 8.296875 
L 54.390625 8.296875 
L 54.390625 0 
L 12.40625 0 
z
" id="DejaVuSans-49"/>
      </defs>
      <g transform="translate(380.672962 404.638438)scale(0.1 -0.1)">
       <use xlink:href="#DejaVuSans-48"/>
       <use x="63.623047" xlink:href="#DejaVuSans-46"/>
       <use x="95.410156" xlink:href="#DejaVuSans-49"/>
       <use x="159.033203" xlink:href="#DejaVuSans-48"/>
      </g>
     </g>
    </g>
    <g id="xtick_4">
     <g id="line2d_4">
      <g>
       <use style="stroke:#000000;stroke-width:0.8;" x="432.864912" xlink:href="#m84fe095f4f" y="390.04"/>
      </g>
     </g>
     <g id="text_4">
      <!-- 0.15 -->
      <g transform="translate(421.7321 404.638438)scale(0.1 -0.1)">
       <use xlink:href="#DejaVuSans-48"/>
       <use x="63.623047" xlink:href="#DejaVuSans-46"/>
       <use x="95.410156" xlink:href="#DejaVuSans-49"/>
       <use x="159.033203" xlink:href="#DejaVuSans-53"/>
      </g>
     </g>
    </g>
    <g id="xtick_5">
     <g id="line2d_5">
      <g>
       <use style="stroke:#000000;stroke-width:0.8;" x="473.92405" xlink:href="#m84fe095f4f" y="390.04"/>
      </g>
     </g>
     <g id="text_5">
      <!-- 0.20 -->
      <defs>
       <path d="M 19.1875 8.296875 
L 53.609375 8.296875 
L 53.609375 0 
L 7.328125 0 
L 7.328125 8.296875 
Q 12.9375 14.109375 22.625 23.890625 
Q 32.328125 33.6875 34.8125 36.53125 
Q 39.546875 41.84375 41.421875 45.53125 
Q 43.3125 49.21875 43.3125 52.78125 
Q 43.3125 58.59375 39.234375 62.25 
Q 35.15625 65.921875 28.609375 65.921875 
Q 23.96875 65.921875 18.8125 64.3125 
Q 13.671875 62.703125 7.8125 59.421875 
L 7.8125 69.390625 
Q 13.765625 71.78125 18.9375 73 
Q 24.125 74.21875 28.421875 74.21875 
Q 39.75 74.21875 46.484375 68.546875 
Q 53.21875 62.890625 53.21875 53.421875 
Q 53.21875 48.921875 51.53125 44.890625 
Q 49.859375 40.875 45.40625 35.40625 
Q 44.1875 33.984375 37.640625 27.21875 
Q 31.109375 20.453125 19.1875 8.296875 
z
" id="DejaVuSans-50"/>
      </defs>
      <g transform="translate(462.791237 404.638438)scale(0.1 -0.1)">
       <use xlink:href="#DejaVuSans-48"/>
       <use x="63.623047" xlink:href="#DejaVuSans-46"/>
       <use x="95.410156" xlink:href="#DejaVuSans-50"/>
       <use x="159.033203" xlink:href="#DejaVuSans-48"/>
      </g>
     </g>
    </g>
    <g id="xtick_6">
     <g id="line2d_6">
      <g>
       <use style="stroke:#000000;stroke-width:0.8;" x="514.983187" xlink:href="#m84fe095f4f" y="390.04"/>
      </g>
     </g>
     <g id="text_6">
      <!-- 0.25 -->
      <g transform="translate(503.850375 404.638438)scale(0.1 -0.1)">
       <use xlink:href="#DejaVuSans-48"/>
       <use x="63.623047" xlink:href="#DejaVuSans-46"/>
       <use x="95.410156" xlink:href="#DejaVuSans-50"/>
       <use x="159.033203" xlink:href="#DejaVuSans-53"/>
      </g>
     </g>
    </g>
    <g id="xtick_7">
     <g id="line2d_7">
      <g>
       <use style="stroke:#000000;stroke-width:0.8;" x="556.042325" xlink:href="#m84fe095f4f" y="390.04"/>
      </g>
     </g>
     <g id="text_7">
      <!-- 0.30 -->
      <defs>
       <path d="M 40.578125 39.3125 
Q 47.65625 37.796875 51.625 33 
Q 55.609375 28.21875 55.609375 21.1875 
Q 55.609375 10.40625 48.1875 4.484375 
Q 40.765625 -1.421875 27.09375 -1.421875 
Q 22.515625 -1.421875 17.65625 -0.515625 
Q 12.796875 0.390625 7.625 2.203125 
L 7.625 11.71875 
Q 11.71875 9.328125 16.59375 8.109375 
Q 21.484375 6.890625 26.8125 6.890625 
Q 36.078125 6.890625 40.9375 10.546875 
Q 45.796875 14.203125 45.796875 21.1875 
Q 45.796875 27.640625 41.28125 31.265625 
Q 36.765625 34.90625 28.71875 34.90625 
L 20.21875 34.90625 
L 20.21875 43.015625 
L 29.109375 43.015625 
Q 36.375 43.015625 40.234375 45.921875 
Q 44.09375 48.828125 44.09375 54.296875 
Q 44.09375 59.90625 40.109375 62.90625 
Q 36.140625 65.921875 28.71875 65.921875 
Q 24.65625 65.921875 20.015625 65.03125 
Q 15.375 64.15625 9.8125 62.3125 
L 9.8125 71.09375 
Q 15.4375 72.65625 20.34375 73.4375 
Q 25.25 74.21875 29.59375 74.21875 
Q 40.828125 74.21875 47.359375 69.109375 
Q 53.90625 64.015625 53.90625 55.328125 
Q 53.90625 49.265625 50.4375 45.09375 
Q 46.96875 40.921875 40.578125 39.3125 
z
" id="DejaVuSans-51"/>
      </defs>
      <g transform="translate(544.909512 404.638438)scale(0.1 -0.1)">
       <use xlink:href="#DejaVuSans-48"/>
       <use x="63.623047" xlink:href="#DejaVuSans-46"/>
       <use x="95.410156" xlink:href="#DejaVuSans-51"/>
       <use x="159.033203" xlink:href="#DejaVuSans-48"/>
      </g>
     </g>
    </g>
    <g id="text_8">
     <!-- cpu time (ms) -->
     <defs>
      <path d="M 48.78125 52.59375 
L 48.78125 44.1875 
Q 44.96875 46.296875 41.140625 47.34375 
Q 37.3125 48.390625 33.40625 48.390625 
Q 24.65625 48.390625 19.8125 42.84375 
Q 14.984375 37.3125 14.984375 27.296875 
Q 14.984375 17.28125 19.8125 11.734375 
Q 24.65625 6.203125 33.40625 6.203125 
Q 37.3125 6.203125 41.140625 7.25 
Q 44.96875 8.296875 48.78125 10.40625 
L 48.78125 2.09375 
Q 45.015625 0.34375 40.984375 -0.53125 
Q 36.96875 -1.421875 32.421875 -1.421875 
Q 20.0625 -1.421875 12.78125 6.34375 
Q 5.515625 14.109375 5.515625 27.296875 
Q 5.515625 40.671875 12.859375 48.328125 
Q 20.21875 56 33.015625 56 
Q 37.15625 56 41.109375 55.140625 
Q 45.0625 54.296875 48.78125 52.59375 
z
" id="DejaVuSans-99"/>
      <path d="M 18.109375 8.203125 
L 18.109375 -20.796875 
L 9.078125 -20.796875 
L 9.078125 54.6875 
L 18.109375 54.6875 
L 18.109375 46.390625 
Q 20.953125 51.265625 25.265625 53.625 
Q 29.59375 56 35.59375 56 
Q 45.5625 56 51.78125 48.09375 
Q 58.015625 40.1875 58.015625 27.296875 
Q 58.015625 14.40625 51.78125 6.484375 
Q 45.5625 -1.421875 35.59375 -1.421875 
Q 29.59375 -1.421875 25.265625 0.953125 
Q 20.953125 3.328125 18.109375 8.203125 
z
M 48.6875 27.296875 
Q 48.6875 37.203125 44.609375 42.84375 
Q 40.53125 48.484375 33.40625 48.484375 
Q 26.265625 48.484375 22.1875 42.84375 
Q 18.109375 37.203125 18.109375 27.296875 
Q 18.109375 17.390625 22.1875 11.75 
Q 26.265625 6.109375 33.40625 6.109375 
Q 40.53125 6.109375 44.609375 11.75 
Q 48.6875 17.390625 48.6875 27.296875 
z
" id="DejaVuSans-112"/>
      <path d="M 8.5 21.578125 
L 8.5 54.6875 
L 17.484375 54.6875 
L 17.484375 21.921875 
Q 17.484375 14.15625 20.5 10.265625 
Q 23.53125 6.390625 29.59375 6.390625 
Q 36.859375 6.390625 41.078125 11.03125 
Q 45.3125 15.671875 45.3125 23.6875 
L 45.3125 54.6875 
L 54.296875 54.6875 
L 54.296875 0 
L 45.3125 0 
L 45.3125 8.40625 
Q 42.046875 3.421875 37.71875 1 
Q 33.40625 -1.421875 27.6875 -1.421875 
Q 18.265625 -1.421875 13.375 4.4375 
Q 8.5 10.296875 8.5 21.578125 
z
M 31.109375 56 
z
" id="DejaVuSans-117"/>
      <path id="DejaVuSans-32"/>
      <path d="M 18.3125 70.21875 
L 18.3125 54.6875 
L 36.8125 54.6875 
L 36.8125 47.703125 
L 18.3125 47.703125 
L 18.3125 18.015625 
Q 18.3125 11.328125 20.140625 9.421875 
Q 21.96875 7.515625 27.59375 7.515625 
L 36.8125 7.515625 
L 36.8125 0 
L 27.59375 0 
Q 17.1875 0 13.234375 3.875 
Q 9.28125 7.765625 9.28125 18.015625 
L 9.28125 47.703125 
L 2.6875 47.703125 
L 2.6875 54.6875 
L 9.28125 54.6875 
L 9.28125 70.21875 
z
" id="DejaVuSans-116"/>
      <path d="M 9.421875 54.6875 
L 18.40625 54.6875 
L 18.40625 0 
L 9.421875 0 
z
M 9.421875 75.984375 
L 18.40625 75.984375 
L 18.40625 64.59375 
L 9.421875 64.59375 
z
" id="DejaVuSans-105"/>
      <path d="M 52 44.1875 
Q 55.375 50.25 60.0625 53.125 
Q 64.75 56 71.09375 56 
Q 79.640625 56 84.28125 50.015625 
Q 88.921875 44.046875 88.921875 33.015625 
L 88.921875 0 
L 79.890625 0 
L 79.890625 32.71875 
Q 79.890625 40.578125 77.09375 44.375 
Q 74.3125 48.1875 68.609375 48.1875 
Q 61.625 48.1875 57.5625 43.546875 
Q 53.515625 38.921875 53.515625 30.90625 
L 53.515625 0 
L 44.484375 0 
L 44.484375 32.71875 
Q 44.484375 40.625 41.703125 44.40625 
Q 38.921875 48.1875 33.109375 48.1875 
Q 26.21875 48.1875 22.15625 43.53125 
Q 18.109375 38.875 18.109375 30.90625 
L 18.109375 0 
L 9.078125 0 
L 9.078125 54.6875 
L 18.109375 54.6875 
L 18.109375 46.1875 
Q 21.1875 51.21875 25.484375 53.609375 
Q 29.78125 56 35.6875 56 
Q 41.65625 56 45.828125 52.96875 
Q 50 49.953125 52 44.1875 
z
" id="DejaVuSans-109"/>
      <path d="M 56.203125 29.59375 
L 56.203125 25.203125 
L 14.890625 25.203125 
Q 15.484375 15.921875 20.484375 11.0625 
Q 25.484375 6.203125 34.421875 6.203125 
Q 39.59375 6.203125 44.453125 7.46875 
Q 49.3125 8.734375 54.109375 11.28125 
L 54.109375 2.78125 
Q 49.265625 0.734375 44.1875 -0.34375 
Q 39.109375 -1.421875 33.890625 -1.421875 
Q 20.796875 -1.421875 13.15625 6.1875 
Q 5.515625 13.8125 5.515625 26.8125 
Q 5.515625 40.234375 12.765625 48.109375 
Q 20.015625 56 32.328125 56 
Q 43.359375 56 49.78125 48.890625 
Q 56.203125 41.796875 56.203125 29.59375 
z
M 47.21875 32.234375 
Q 47.125 39.59375 43.09375 43.984375 
Q 39.0625 48.390625 32.421875 48.390625 
Q 24.90625 48.390625 20.390625 44.140625 
Q 15.875 39.890625 15.1875 32.171875 
z
" id="DejaVuSans-101"/>
      <path d="M 31 75.875 
Q 24.46875 64.65625 21.28125 53.65625 
Q 18.109375 42.671875 18.109375 31.390625 
Q 18.109375 20.125 21.3125 9.0625 
Q 24.515625 -2 31 -13.1875 
L 23.1875 -13.1875 
Q 15.875 -1.703125 12.234375 9.375 
Q 8.59375 20.453125 8.59375 31.390625 
Q 8.59375 42.28125 12.203125 53.3125 
Q 15.828125 64.359375 23.1875 75.875 
z
" id="DejaVuSans-40"/>
      <path d="M 44.28125 53.078125 
L 44.28125 44.578125 
Q 40.484375 46.53125 36.375 47.5 
Q 32.28125 48.484375 27.875 48.484375 
Q 21.1875 48.484375 17.84375 46.4375 
Q 14.5 44.390625 14.5 40.28125 
Q 14.5 37.15625 16.890625 35.375 
Q 19.28125 33.59375 26.515625 31.984375 
L 29.59375 31.296875 
Q 39.15625 29.25 43.1875 25.515625 
Q 47.21875 21.78125 47.21875 15.09375 
Q 47.21875 7.46875 41.1875 3.015625 
Q 35.15625 -1.421875 24.609375 -1.421875 
Q 20.21875 -1.421875 15.453125 -0.5625 
Q 10.6875 0.296875 5.421875 2 
L 5.421875 11.28125 
Q 10.40625 8.6875 15.234375 7.390625 
Q 20.0625 6.109375 24.8125 6.109375 
Q 31.15625 6.109375 34.5625 8.28125 
Q 37.984375 10.453125 37.984375 14.40625 
Q 37.984375 18.0625 35.515625 20.015625 
Q 33.0625 21.96875 24.703125 23.78125 
L 21.578125 24.515625 
Q 13.234375 26.265625 9.515625 29.90625 
Q 5.8125 33.546875 5.8125 39.890625 
Q 5.8125 47.609375 11.28125 51.796875 
Q 16.75 56 26.8125 56 
Q 31.78125 56 36.171875 55.265625 
Q 40.578125 54.546875 44.28125 53.078125 
z
" id="DejaVuSans-115"/>
      <path d="M 8.015625 75.875 
L 15.828125 75.875 
Q 23.140625 64.359375 26.78125 53.3125 
Q 30.421875 42.28125 30.421875 31.390625 
Q 30.421875 20.453125 26.78125 9.375 
Q 23.140625 -1.703125 15.828125 -13.1875 
L 8.015625 -13.1875 
Q 14.5 -2 17.703125 9.0625 
Q 20.90625 20.125 20.90625 31.390625 
Q 20.90625 42.671875 17.703125 53.65625 
Q 14.5 64.65625 8.015625 75.875 
z
" id="DejaVuSans-41"/>
     </defs>
     <g transform="translate(399.096502 418.316562)scale(0.1 -0.1)">
      <use xlink:href="#DejaVuSans-99"/>
      <use x="54.980469" xlink:href="#DejaVuSans-112"/>
      <use x="118.457031" xlink:href="#DejaVuSans-117"/>
      <use x="181.835938" xlink:href="#DejaVuSans-32"/>
      <use x="213.623047" xlink:href="#DejaVuSans-116"/>
      <use x="252.832031" xlink:href="#DejaVuSans-105"/>
      <use x="280.615234" xlink:href="#DejaVuSans-109"/>
      <use x="378.027344" xlink:href="#DejaVuSans-101"/>
      <use x="439.550781" xlink:href="#DejaVuSans-32"/>
      <use x="471.337891" xlink:href="#DejaVuSans-40"/>
      <use x="510.351562" xlink:href="#DejaVuSans-109"/>
      <use x="607.763672" xlink:href="#DejaVuSans-115"/>
      <use x="659.863281" xlink:href="#DejaVuSans-41"/>
     </g>
    </g>
   </g>
   <g id="matplotlib.axis_2">
    <g id="ytick_1">
     <g id="line2d_8">
      <defs>
       <path d="M 0 0 
L -3.5 0 
" id="md0aa5c1a75" style="stroke:#000000;stroke-width:0.8;"/>
      </defs>
      <g>
       <use style="stroke:#000000;stroke-width:0.8;" x="309.6875" xlink:href="#md0aa5c1a75" y="362.954576"/>
      </g>
     </g>
     <g id="text_9">
      <!-- decode&lt;icu::u8_next_unsafe&gt; -->
      <defs>
       <path d="M 45.40625 46.390625 
L 45.40625 75.984375 
L 54.390625 75.984375 
L 54.390625 0 
L 45.40625 0 
L 45.40625 8.203125 
Q 42.578125 3.328125 38.25 0.953125 
Q 33.9375 -1.421875 27.875 -1.421875 
Q 17.96875 -1.421875 11.734375 6.484375 
Q 5.515625 14.40625 5.515625 27.296875 
Q 5.515625 40.1875 11.734375 48.09375 
Q 17.96875 56 27.875 56 
Q 33.9375 56 38.25 53.625 
Q 42.578125 51.265625 45.40625 46.390625 
z
M 14.796875 27.296875 
Q 14.796875 17.390625 18.875 11.75 
Q 22.953125 6.109375 30.078125 6.109375 
Q 37.203125 6.109375 41.296875 11.75 
Q 45.40625 17.390625 45.40625 27.296875 
Q 45.40625 37.203125 41.296875 42.84375 
Q 37.203125 48.484375 30.078125 48.484375 
Q 22.953125 48.484375 18.875 42.84375 
Q 14.796875 37.203125 14.796875 27.296875 
z
" id="DejaVuSans-100"/>
       <path d="M 30.609375 48.390625 
Q 23.390625 48.390625 19.1875 42.75 
Q 14.984375 37.109375 14.984375 27.296875 
Q 14.984375 17.484375 19.15625 11.84375 
Q 23.34375 6.203125 30.609375 6.203125 
Q 37.796875 6.203125 41.984375 11.859375 
Q 46.1875 17.53125 46.1875 27.296875 
Q 46.1875 37.015625 41.984375 42.703125 
Q 37.796875 48.390625 30.609375 48.390625 
z
M 30.609375 56 
Q 42.328125 56 49.015625 48.375 
Q 55.71875 40.765625 55.71875 27.296875 
Q 55.71875 13.875 49.015625 6.21875 
Q 42.328125 -1.421875 30.609375 -1.421875 
Q 18.84375 -1.421875 12.171875 6.21875 
Q 5.515625 13.875 5.515625 27.296875 
Q 5.515625 40.765625 12.171875 48.375 
Q 18.84375 56 30.609375 56 
z
" id="DejaVuSans-111"/>
       <path d="M 73.1875 49.21875 
L 22.796875 31.296875 
L 73.1875 13.484375 
L 73.1875 4.59375 
L 10.59375 27.296875 
L 10.59375 35.40625 
L 73.1875 58.109375 
z
" id="DejaVuSans-60"/>
       <path d="M 11.71875 12.40625 
L 22.015625 12.40625 
L 22.015625 0 
L 11.71875 0 
z
M 11.71875 51.703125 
L 22.015625 51.703125 
L 22.015625 39.3125 
L 11.71875 39.3125 
z
" id="DejaVuSans-58"/>
       <path d="M 31.78125 34.625 
Q 24.75 34.625 20.71875 30.859375 
Q 16.703125 27.09375 16.703125 20.515625 
Q 16.703125 13.921875 20.71875 10.15625 
Q 24.75 6.390625 31.78125 6.390625 
Q 38.8125 6.390625 42.859375 10.171875 
Q 46.921875 13.96875 46.921875 20.515625 
Q 46.921875 27.09375 42.890625 30.859375 
Q 38.875 34.625 31.78125 34.625 
z
M 21.921875 38.8125 
Q 15.578125 40.375 12.03125 44.71875 
Q 8.5 49.078125 8.5 55.328125 
Q 8.5 64.0625 14.71875 69.140625 
Q 20.953125 74.21875 31.78125 74.21875 
Q 42.671875 74.21875 48.875 69.140625 
Q 55.078125 64.0625 55.078125 55.328125 
Q 55.078125 49.078125 51.53125 44.71875 
Q 48 40.375 41.703125 38.8125 
Q 48.828125 37.15625 52.796875 32.3125 
Q 56.78125 27.484375 56.78125 20.515625 
Q 56.78125 9.90625 50.3125 4.234375 
Q 43.84375 -1.421875 31.78125 -1.421875 
Q 19.734375 -1.421875 13.25 4.234375 
Q 6.78125 9.90625 6.78125 20.515625 
Q 6.78125 27.484375 10.78125 32.3125 
Q 14.796875 37.15625 21.921875 38.8125 
z
M 18.3125 54.390625 
Q 18.3125 48.734375 21.84375 45.5625 
Q 25.390625 42.390625 31.78125 42.390625 
Q 38.140625 42.390625 41.71875 45.5625 
Q 45.3125 48.734375 45.3125 54.390625 
Q 45.3125 60.0625 41.71875 63.234375 
Q 38.140625 66.40625 31.78125 66.40625 
Q 25.390625 66.40625 21.84375 63.234375 
Q 18.3125 60.0625 18.3125 54.390625 
z
" id="DejaVuSans-56"/>
       <path d="M 50.984375 -16.609375 
L 50.984375 -23.578125 
L -0.984375 -23.578125 
L -0.984375 -16.609375 
z
" id="DejaVuSans-95"/>
       <path d="M 54.890625 33.015625 
L 54.890625 0 
L 45.90625 0 
L 45.90625 32.71875 
Q 45.90625 40.484375 42.875 44.328125 
Q 39.84375 48.1875 33.796875 48.1875 
Q 26.515625 48.1875 22.3125 43.546875 
Q 18.109375 38.921875 18.109375 30.90625 
L 18.109375 0 
L 9.078125 0 
L 9.078125 54.6875 
L 18.109375 54.6875 
L 18.109375 46.1875 
Q 21.34375 51.125 25.703125 53.5625 
Q 30.078125 56 35.796875 56 
Q 45.21875 56 50.046875 50.171875 
Q 54.890625 44.34375 54.890625 33.015625 
z
" id="DejaVuSans-110"/>
       <path d="M 54.890625 54.6875 
L 35.109375 28.078125 
L 55.90625 0 
L 45.3125 0 
L 29.390625 21.484375 
L 13.484375 0 
L 2.875 0 
L 24.125 28.609375 
L 4.6875 54.6875 
L 15.28125 54.6875 
L 29.78125 35.203125 
L 44.28125 54.6875 
z
" id="DejaVuSans-120"/>
       <path d="M 34.28125 27.484375 
Q 23.390625 27.484375 19.1875 25 
Q 14.984375 22.515625 14.984375 16.5 
Q 14.984375 11.71875 18.140625 8.90625 
Q 21.296875 6.109375 26.703125 6.109375 
Q 34.1875 6.109375 38.703125 11.40625 
Q 43.21875 16.703125 43.21875 25.484375 
L 43.21875 27.484375 
z
M 52.203125 31.203125 
L 52.203125 0 
L 43.21875 0 
L 43.21875 8.296875 
Q 40.140625 3.328125 35.546875 0.953125 
Q 30.953125 -1.421875 24.3125 -1.421875 
Q 15.921875 -1.421875 10.953125 3.296875 
Q 6 8.015625 6 15.921875 
Q 6 25.140625 12.171875 29.828125 
Q 18.359375 34.515625 30.609375 34.515625 
L 43.21875 34.515625 
L 43.21875 35.40625 
Q 43.21875 41.609375 39.140625 45 
Q 35.0625 48.390625 27.6875 48.390625 
Q 23 48.390625 18.546875 47.265625 
Q 14.109375 46.140625 10.015625 43.890625 
L 10.015625 52.203125 
Q 14.9375 54.109375 19.578125 55.046875 
Q 24.21875 56 28.609375 56 
Q 40.484375 56 46.34375 49.84375 
Q 52.203125 43.703125 52.203125 31.203125 
z
" id="DejaVuSans-97"/>
       <path d="M 37.109375 75.984375 
L 37.109375 68.5 
L 28.515625 68.5 
Q 23.6875 68.5 21.796875 66.546875 
Q 19.921875 64.59375 19.921875 59.515625 
L 19.921875 54.6875 
L 34.71875 54.6875 
L 34.71875 47.703125 
L 19.921875 47.703125 
L 19.921875 0 
L 10.890625 0 
L 10.890625 47.703125 
L 2.296875 47.703125 
L 2.296875 54.6875 
L 10.890625 54.6875 
L 10.890625 58.5 
Q 10.890625 67.625 15.140625 71.796875 
Q 19.390625 75.984375 28.609375 75.984375 
z
" id="DejaVuSans-102"/>
       <path d="M 10.59375 49.21875 
L 10.59375 58.109375 
L 73.1875 35.40625 
L 73.1875 27.296875 
L 10.59375 4.59375 
L 10.59375 13.484375 
L 60.890625 31.296875 
z
" id="DejaVuSans-62"/>
      </defs>
      <g transform="translate(149.242188 366.753795)scale(0.1 -0.1)">
       <use xlink:href="#DejaVuSans-100"/>
       <use x="63.476562" xlink:href="#DejaVuSans-101"/>
       <use x="125" xlink:href="#DejaVuSans-99"/>
       <use x="179.980469" xlink:href="#DejaVuSans-111"/>
       <use x="241.162109" xlink:href="#DejaVuSans-100"/>
       <use x="304.638672" xlink:href="#DejaVuSans-101"/>
       <use x="366.162109" xlink:href="#DejaVuSans-60"/>
       <use x="449.951172" xlink:href="#DejaVuSans-105"/>
       <use x="477.734375" xlink:href="#DejaVuSans-99"/>
       <use x="532.714844" xlink:href="#DejaVuSans-117"/>
       <use x="596.09375" xlink:href="#DejaVuSans-58"/>
       <use x="629.785156" xlink:href="#DejaVuSans-58"/>
       <use x="663.476562" xlink:href="#DejaVuSans-117"/>
       <use x="726.855469" xlink:href="#DejaVuSans-56"/>
       <use x="790.478516" xlink:href="#DejaVuSans-95"/>
       <use x="840.478516" xlink:href="#DejaVuSans-110"/>
       <use x="903.857422" xlink:href="#DejaVuSans-101"/>
       <use x="965.365234" xlink:href="#DejaVuSans-120"/>
       <use x="1024.544922" xlink:href="#DejaVuSans-116"/>
       <use x="1063.753906" xlink:href="#DejaVuSans-95"/>
       <use x="1113.753906" xlink:href="#DejaVuSans-117"/>
       <use x="1177.132812" xlink:href="#DejaVuSans-110"/>
       <use x="1240.511719" xlink:href="#DejaVuSans-115"/>
       <use x="1292.611328" xlink:href="#DejaVuSans-97"/>
       <use x="1353.890625" xlink:href="#DejaVuSans-102"/>
       <use x="1389.095703" xlink:href="#DejaVuSans-101"/>
       <use x="1450.619141" xlink:href="#DejaVuSans-62"/>
      </g>
     </g>
    </g>
    <g id="ytick_2">
     <g id="line2d_9">
      <g>
       <use style="stroke:#000000;stroke-width:0.8;" x="309.6875" xlink:href="#md0aa5c1a75" y="335.595562"/>
      </g>
     </g>
     <g id="text_10">
      <!-- icu::decode&lt;::u_strFromUTF8Lenient&gt; -->
      <defs>
       <path d="M 41.109375 46.296875 
Q 39.59375 47.171875 37.8125 47.578125 
Q 36.03125 48 33.890625 48 
Q 26.265625 48 22.1875 43.046875 
Q 18.109375 38.09375 18.109375 28.8125 
L 18.109375 0 
L 9.078125 0 
L 9.078125 54.6875 
L 18.109375 54.6875 
L 18.109375 46.1875 
Q 20.953125 51.171875 25.484375 53.578125 
Q 30.03125 56 36.53125 56 
Q 37.453125 56 38.578125 55.875 
Q 39.703125 55.765625 41.0625 55.515625 
z
" id="DejaVuSans-114"/>
       <path d="M 9.8125 72.90625 
L 51.703125 72.90625 
L 51.703125 64.59375 
L 19.671875 64.59375 
L 19.671875 43.109375 
L 48.578125 43.109375 
L 48.578125 34.8125 
L 19.671875 34.8125 
L 19.671875 0 
L 9.8125 0 
z
" id="DejaVuSans-70"/>
       <path d="M 8.6875 72.90625 
L 18.609375 72.90625 
L 18.609375 28.609375 
Q 18.609375 16.890625 22.84375 11.734375 
Q 27.09375 6.59375 36.625 6.59375 
Q 46.09375 6.59375 50.34375 11.734375 
Q 54.59375 16.890625 54.59375 28.609375 
L 54.59375 72.90625 
L 64.5 72.90625 
L 64.5 27.390625 
Q 64.5 13.140625 57.4375 5.859375 
Q 50.390625 -1.421875 36.625 -1.421875 
Q 22.796875 -1.421875 15.734375 5.859375 
Q 8.6875 13.140625 8.6875 27.390625 
z
" id="DejaVuSans-85"/>
       <path d="M -0.296875 72.90625 
L 61.375 72.90625 
L 61.375 64.59375 
L 35.5 64.59375 
L 35.5 0 
L 25.59375 0 
L 25.59375 64.59375 
L -0.296875 64.59375 
z
" id="DejaVuSans-84"/>
       <path d="M 9.8125 72.90625 
L 19.671875 72.90625 
L 19.671875 8.296875 
L 55.171875 8.296875 
L 55.171875 0 
L 9.8125 0 
z
" id="DejaVuSans-76"/>
      </defs>
      <g transform="translate(108.142188 339.394781)scale(0.1 -0.1)">
       <use xlink:href="#DejaVuSans-105"/>
       <use x="27.783203" xlink:href="#DejaVuSans-99"/>
       <use x="82.763672" xlink:href="#DejaVuSans-117"/>
       <use x="146.142578" xlink:href="#DejaVuSans-58"/>
       <use x="179.833984" xlink:href="#DejaVuSans-58"/>
       <use x="213.525391" xlink:href="#DejaVuSans-100"/>
       <use x="277.001953" xlink:href="#DejaVuSans-101"/>
       <use x="338.525391" xlink:href="#DejaVuSans-99"/>
       <use x="393.505859" xlink:href="#DejaVuSans-111"/>
       <use x="454.6875" xlink:href="#DejaVuSans-100"/>
       <use x="518.164062" xlink:href="#DejaVuSans-101"/>
       <use x="579.6875" xlink:href="#DejaVuSans-60"/>
       <use x="663.476562" xlink:href="#DejaVuSans-58"/>
       <use x="697.167969" xlink:href="#DejaVuSans-58"/>
       <use x="730.859375" xlink:href="#DejaVuSans-117"/>
       <use x="794.238281" xlink:href="#DejaVuSans-95"/>
       <use x="844.238281" xlink:href="#DejaVuSans-115"/>
       <use x="896.337891" xlink:href="#DejaVuSans-116"/>
       <use x="935.546875" xlink:href="#DejaVuSans-114"/>
       <use x="976.660156" xlink:href="#DejaVuSans-70"/>
       <use x="1034.070312" xlink:href="#DejaVuSans-114"/>
       <use x="1075.152344" xlink:href="#DejaVuSans-111"/>
       <use x="1136.333984" xlink:href="#DejaVuSans-109"/>
       <use x="1233.746094" xlink:href="#DejaVuSans-85"/>
       <use x="1306.939453" xlink:href="#DejaVuSans-84"/>
       <use x="1368.023438" xlink:href="#DejaVuSans-70"/>
       <use x="1425.542969" xlink:href="#DejaVuSans-56"/>
       <use x="1489.166016" xlink:href="#DejaVuSans-76"/>
       <use x="1544.863281" xlink:href="#DejaVuSans-101"/>
       <use x="1606.386719" xlink:href="#DejaVuSans-110"/>
       <use x="1669.765625" xlink:href="#DejaVuSans-105"/>
       <use x="1697.548828" xlink:href="#DejaVuSans-101"/>
       <use x="1759.072266" xlink:href="#DejaVuSans-110"/>
       <use x="1822.451172" xlink:href="#DejaVuSans-116"/>
       <use x="1861.660156" xlink:href="#DejaVuSans-62"/>
      </g>
     </g>
    </g>
    <g id="ytick_3">
     <g id="line2d_10">
      <g>
       <use style="stroke:#000000;stroke-width:0.8;" x="309.6875" xlink:href="#md0aa5c1a75" y="308.236549"/>
      </g>
     </g>
     <g id="text_11">
      <!-- decode&lt;icu::u8_next&gt; -->
      <g transform="translate(187.928125 312.035767)scale(0.1 -0.1)">
       <use xlink:href="#DejaVuSans-100"/>
       <use x="63.476562" xlink:href="#DejaVuSans-101"/>
       <use x="125" xlink:href="#DejaVuSans-99"/>
       <use x="179.980469" xlink:href="#DejaVuSans-111"/>
       <use x="241.162109" xlink:href="#DejaVuSans-100"/>
       <use x="304.638672" xlink:href="#DejaVuSans-101"/>
       <use x="366.162109" xlink:href="#DejaVuSans-60"/>
       <use x="449.951172" xlink:href="#DejaVuSans-105"/>
       <use x="477.734375" xlink:href="#DejaVuSans-99"/>
       <use x="532.714844" xlink:href="#DejaVuSans-117"/>
       <use x="596.09375" xlink:href="#DejaVuSans-58"/>
       <use x="629.785156" xlink:href="#DejaVuSans-58"/>
       <use x="663.476562" xlink:href="#DejaVuSans-117"/>
       <use x="726.855469" xlink:href="#DejaVuSans-56"/>
       <use x="790.478516" xlink:href="#DejaVuSans-95"/>
       <use x="840.478516" xlink:href="#DejaVuSans-110"/>
       <use x="903.857422" xlink:href="#DejaVuSans-101"/>
       <use x="965.365234" xlink:href="#DejaVuSans-120"/>
       <use x="1024.544922" xlink:href="#DejaVuSans-116"/>
       <use x="1063.753906" xlink:href="#DejaVuSans-62"/>
      </g>
     </g>
    </g>
    <g id="ytick_4">
     <g id="line2d_11">
      <g>
       <use style="stroke:#000000;stroke-width:0.8;" x="309.6875" xlink:href="#md0aa5c1a75" y="280.877535"/>
      </g>
     </g>
     <g id="text_12">
      <!-- kewb::decode&lt;::uu::UtfUtils::FastBigTableConvert&gt; -->
      <defs>
       <path d="M 9.078125 75.984375 
L 18.109375 75.984375 
L 18.109375 31.109375 
L 44.921875 54.6875 
L 56.390625 54.6875 
L 27.390625 29.109375 
L 57.625 0 
L 45.90625 0 
L 18.109375 26.703125 
L 18.109375 0 
L 9.078125 0 
z
" id="DejaVuSans-107"/>
       <path d="M 4.203125 54.6875 
L 13.1875 54.6875 
L 24.421875 12.015625 
L 35.59375 54.6875 
L 46.1875 54.6875 
L 57.421875 12.015625 
L 68.609375 54.6875 
L 77.59375 54.6875 
L 63.28125 0 
L 52.6875 0 
L 40.921875 44.828125 
L 29.109375 0 
L 18.5 0 
z
" id="DejaVuSans-119"/>
       <path d="M 48.6875 27.296875 
Q 48.6875 37.203125 44.609375 42.84375 
Q 40.53125 48.484375 33.40625 48.484375 
Q 26.265625 48.484375 22.1875 42.84375 
Q 18.109375 37.203125 18.109375 27.296875 
Q 18.109375 17.390625 22.1875 11.75 
Q 26.265625 6.109375 33.40625 6.109375 
Q 40.53125 6.109375 44.609375 11.75 
Q 48.6875 17.390625 48.6875 27.296875 
z
M 18.109375 46.390625 
Q 20.953125 51.265625 25.265625 53.625 
Q 29.59375 56 35.59375 56 
Q 45.5625 56 51.78125 48.09375 
Q 58.015625 40.1875 58.015625 27.296875 
Q 58.015625 14.40625 51.78125 6.484375 
Q 45.5625 -1.421875 35.59375 -1.421875 
Q 29.59375 -1.421875 25.265625 0.953125 
Q 20.953125 3.328125 18.109375 8.203125 
L 18.109375 0 
L 9.078125 0 
L 9.078125 75.984375 
L 18.109375 75.984375 
z
" id="DejaVuSans-98"/>
       <path d="M 9.421875 75.984375 
L 18.40625 75.984375 
L 18.40625 0 
L 9.421875 0 
z
" id="DejaVuSans-108"/>
       <path d="M 19.671875 34.8125 
L 19.671875 8.109375 
L 35.5 8.109375 
Q 43.453125 8.109375 47.28125 11.40625 
Q 51.125 14.703125 51.125 21.484375 
Q 51.125 28.328125 47.28125 31.5625 
Q 43.453125 34.8125 35.5 34.8125 
z
M 19.671875 64.796875 
L 19.671875 42.828125 
L 34.28125 42.828125 
Q 41.5 42.828125 45.03125 45.53125 
Q 48.578125 48.25 48.578125 53.8125 
Q 48.578125 59.328125 45.03125 62.0625 
Q 41.5 64.796875 34.28125 64.796875 
z
M 9.8125 72.90625 
L 35.015625 72.90625 
Q 46.296875 72.90625 52.390625 68.21875 
Q 58.5 63.53125 58.5 54.890625 
Q 58.5 48.1875 55.375 44.234375 
Q 52.25 40.28125 46.1875 39.3125 
Q 53.46875 37.75 57.5 32.78125 
Q 61.53125 27.828125 61.53125 20.40625 
Q 61.53125 10.640625 54.890625 5.3125 
Q 48.25 0 35.984375 0 
L 9.8125 0 
z
" id="DejaVuSans-66"/>
       <path d="M 45.40625 27.984375 
Q 45.40625 37.75 41.375 43.109375 
Q 37.359375 48.484375 30.078125 48.484375 
Q 22.859375 48.484375 18.828125 43.109375 
Q 14.796875 37.75 14.796875 27.984375 
Q 14.796875 18.265625 18.828125 12.890625 
Q 22.859375 7.515625 30.078125 7.515625 
Q 37.359375 7.515625 41.375 12.890625 
Q 45.40625 18.265625 45.40625 27.984375 
z
M 54.390625 6.78125 
Q 54.390625 -7.171875 48.1875 -13.984375 
Q 42 -20.796875 29.203125 -20.796875 
Q 24.46875 -20.796875 20.265625 -20.09375 
Q 16.0625 -19.390625 12.109375 -17.921875 
L 12.109375 -9.1875 
Q 16.0625 -11.328125 19.921875 -12.34375 
Q 23.78125 -13.375 27.78125 -13.375 
Q 36.625 -13.375 41.015625 -8.765625 
Q 45.40625 -4.15625 45.40625 5.171875 
L 45.40625 9.625 
Q 42.625 4.78125 38.28125 2.390625 
Q 33.9375 0 27.875 0 
Q 17.828125 0 11.671875 7.65625 
Q 5.515625 15.328125 5.515625 27.984375 
Q 5.515625 40.671875 11.671875 48.328125 
Q 17.828125 56 27.875 56 
Q 33.9375 56 38.28125 53.609375 
Q 42.625 51.21875 45.40625 46.390625 
L 45.40625 54.6875 
L 54.390625 54.6875 
z
" id="DejaVuSans-103"/>
       <path d="M 64.40625 67.28125 
L 64.40625 56.890625 
Q 59.421875 61.53125 53.78125 63.8125 
Q 48.140625 66.109375 41.796875 66.109375 
Q 29.296875 66.109375 22.65625 58.46875 
Q 16.015625 50.828125 16.015625 36.375 
Q 16.015625 21.96875 22.65625 14.328125 
Q 29.296875 6.6875 41.796875 6.6875 
Q 48.140625 6.6875 53.78125 8.984375 
Q 59.421875 11.28125 64.40625 15.921875 
L 64.40625 5.609375 
Q 59.234375 2.09375 53.4375 0.328125 
Q 47.65625 -1.421875 41.21875 -1.421875 
Q 24.65625 -1.421875 15.125 8.703125 
Q 5.609375 18.84375 5.609375 36.375 
Q 5.609375 53.953125 15.125 64.078125 
Q 24.65625 74.21875 41.21875 74.21875 
Q 47.75 74.21875 53.53125 72.484375 
Q 59.328125 70.75 64.40625 67.28125 
z
" id="DejaVuSans-67"/>
       <path d="M 2.984375 54.6875 
L 12.5 54.6875 
L 29.59375 8.796875 
L 46.6875 54.6875 
L 56.203125 54.6875 
L 35.6875 0 
L 23.484375 0 
z
" id="DejaVuSans-118"/>
      </defs>
      <g transform="translate(42.4375 284.676753)scale(0.1 -0.1)">
       <use xlink:href="#DejaVuSans-107"/>
       <use x="57.863281" xlink:href="#DejaVuSans-101"/>
       <use x="119.386719" xlink:href="#DejaVuSans-119"/>
       <use x="201.173828" xlink:href="#DejaVuSans-98"/>
       <use x="264.650391" xlink:href="#DejaVuSans-58"/>
       <use x="298.341797" xlink:href="#DejaVuSans-58"/>
       <use x="332.033203" xlink:href="#DejaVuSans-100"/>
       <use x="395.509766" xlink:href="#DejaVuSans-101"/>
       <use x="457.033203" xlink:href="#DejaVuSans-99"/>
       <use x="512.013672" xlink:href="#DejaVuSans-111"/>
       <use x="573.195312" xlink:href="#DejaVuSans-100"/>
       <use x="636.671875" xlink:href="#DejaVuSans-101"/>
       <use x="698.195312" xlink:href="#DejaVuSans-60"/>
       <use x="781.984375" xlink:href="#DejaVuSans-58"/>
       <use x="815.675781" xlink:href="#DejaVuSans-58"/>
       <use x="849.367188" xlink:href="#DejaVuSans-117"/>
       <use x="912.746094" xlink:href="#DejaVuSans-117"/>
       <use x="976.125" xlink:href="#DejaVuSans-58"/>
       <use x="1009.816406" xlink:href="#DejaVuSans-58"/>
       <use x="1043.507812" xlink:href="#DejaVuSans-85"/>
       <use x="1116.701172" xlink:href="#DejaVuSans-116"/>
       <use x="1155.910156" xlink:href="#DejaVuSans-102"/>
       <use x="1191.115234" xlink:href="#DejaVuSans-85"/>
       <use x="1264.308594" xlink:href="#DejaVuSans-116"/>
       <use x="1303.517578" xlink:href="#DejaVuSans-105"/>
       <use x="1331.300781" xlink:href="#DejaVuSans-108"/>
       <use x="1359.083984" xlink:href="#DejaVuSans-115"/>
       <use x="1411.183594" xlink:href="#DejaVuSans-58"/>
       <use x="1444.875" xlink:href="#DejaVuSans-58"/>
       <use x="1478.566406" xlink:href="#DejaVuSans-70"/>
       <use x="1535.945312" xlink:href="#DejaVuSans-97"/>
       <use x="1597.224609" xlink:href="#DejaVuSans-115"/>
       <use x="1649.324219" xlink:href="#DejaVuSans-116"/>
       <use x="1688.533203" xlink:href="#DejaVuSans-66"/>
       <use x="1757.136719" xlink:href="#DejaVuSans-105"/>
       <use x="1784.919922" xlink:href="#DejaVuSans-103"/>
       <use x="1848.396484" xlink:href="#DejaVuSans-84"/>
       <use x="1909.230469" xlink:href="#DejaVuSans-97"/>
       <use x="1970.509766" xlink:href="#DejaVuSans-98"/>
       <use x="2033.986328" xlink:href="#DejaVuSans-108"/>
       <use x="2061.769531" xlink:href="#DejaVuSans-101"/>
       <use x="2123.292969" xlink:href="#DejaVuSans-67"/>
       <use x="2193.117188" xlink:href="#DejaVuSans-111"/>
       <use x="2254.298828" xlink:href="#DejaVuSans-110"/>
       <use x="2317.677734" xlink:href="#DejaVuSans-118"/>
       <use x="2376.857422" xlink:href="#DejaVuSans-101"/>
       <use x="2438.380859" xlink:href="#DejaVuSans-114"/>
       <use x="2479.494141" xlink:href="#DejaVuSans-116"/>
       <use x="2518.703125" xlink:href="#DejaVuSans-62"/>
      </g>
     </g>
    </g>
    <g id="ytick_5">
     <g id="line2d_12">
      <g>
       <use style="stroke:#000000;stroke-width:0.8;" x="309.6875" xlink:href="#md0aa5c1a75" y="253.518521"/>
      </g>
     </g>
     <g id="text_13">
      <!-- decode&lt;mk::decode_next&lt;mk::icu::decode_next&gt;&gt; -->
      <g transform="translate(38.7625 257.31774)scale(0.1 -0.1)">
       <use xlink:href="#DejaVuSans-100"/>
       <use x="63.476562" xlink:href="#DejaVuSans-101"/>
       <use x="125" xlink:href="#DejaVuSans-99"/>
       <use x="179.980469" xlink:href="#DejaVuSans-111"/>
       <use x="241.162109" xlink:href="#DejaVuSans-100"/>
       <use x="304.638672" xlink:href="#DejaVuSans-101"/>
       <use x="366.162109" xlink:href="#DejaVuSans-60"/>
       <use x="449.951172" xlink:href="#DejaVuSans-109"/>
       <use x="547.363281" xlink:href="#DejaVuSans-107"/>
       <use x="605.273438" xlink:href="#DejaVuSans-58"/>
       <use x="638.964844" xlink:href="#DejaVuSans-58"/>
       <use x="672.65625" xlink:href="#DejaVuSans-100"/>
       <use x="736.132812" xlink:href="#DejaVuSans-101"/>
       <use x="797.65625" xlink:href="#DejaVuSans-99"/>
       <use x="852.636719" xlink:href="#DejaVuSans-111"/>
       <use x="913.818359" xlink:href="#DejaVuSans-100"/>
       <use x="977.294922" xlink:href="#DejaVuSans-101"/>
       <use x="1038.818359" xlink:href="#DejaVuSans-95"/>
       <use x="1088.818359" xlink:href="#DejaVuSans-110"/>
       <use x="1152.197266" xlink:href="#DejaVuSans-101"/>
       <use x="1213.705078" xlink:href="#DejaVuSans-120"/>
       <use x="1272.884766" xlink:href="#DejaVuSans-116"/>
       <use x="1312.09375" xlink:href="#DejaVuSans-60"/>
       <use x="1395.882812" xlink:href="#DejaVuSans-109"/>
       <use x="1493.294922" xlink:href="#DejaVuSans-107"/>
       <use x="1551.205078" xlink:href="#DejaVuSans-58"/>
       <use x="1584.896484" xlink:href="#DejaVuSans-58"/>
       <use x="1618.587891" xlink:href="#DejaVuSans-105"/>
       <use x="1646.371094" xlink:href="#DejaVuSans-99"/>
       <use x="1701.351562" xlink:href="#DejaVuSans-117"/>
       <use x="1764.730469" xlink:href="#DejaVuSans-58"/>
       <use x="1798.421875" xlink:href="#DejaVuSans-58"/>
       <use x="1832.113281" xlink:href="#DejaVuSans-100"/>
       <use x="1895.589844" xlink:href="#DejaVuSans-101"/>
       <use x="1957.113281" xlink:href="#DejaVuSans-99"/>
       <use x="2012.09375" xlink:href="#DejaVuSans-111"/>
       <use x="2073.275391" xlink:href="#DejaVuSans-100"/>
       <use x="2136.751953" xlink:href="#DejaVuSans-101"/>
       <use x="2198.275391" xlink:href="#DejaVuSans-95"/>
       <use x="2248.275391" xlink:href="#DejaVuSans-110"/>
       <use x="2311.654297" xlink:href="#DejaVuSans-101"/>
       <use x="2373.162109" xlink:href="#DejaVuSans-120"/>
       <use x="2432.341797" xlink:href="#DejaVuSans-116"/>
       <use x="2471.550781" xlink:href="#DejaVuSans-62"/>
       <use x="2555.339844" xlink:href="#DejaVuSans-62"/>
      </g>
     </g>
    </g>
    <g id="ytick_6">
     <g id="line2d_13">
      <g>
       <use style="stroke:#000000;stroke-width:0.8;" x="309.6875" xlink:href="#md0aa5c1a75" y="226.159507"/>
      </g>
     </g>
     <g id="text_14">
      <!-- kewb::decode&lt;::uu::UtfUtils::SseBigTableConvert&gt; -->
      <defs>
       <path d="M 53.515625 70.515625 
L 53.515625 60.890625 
Q 47.90625 63.578125 42.921875 64.890625 
Q 37.9375 66.21875 33.296875 66.21875 
Q 25.25 66.21875 20.875 63.09375 
Q 16.5 59.96875 16.5 54.203125 
Q 16.5 49.359375 19.40625 46.890625 
Q 22.3125 44.4375 30.421875 42.921875 
L 36.375 41.703125 
Q 47.40625 39.59375 52.65625 34.296875 
Q 57.90625 29 57.90625 20.125 
Q 57.90625 9.515625 50.796875 4.046875 
Q 43.703125 -1.421875 29.984375 -1.421875 
Q 24.8125 -1.421875 18.96875 -0.25 
Q 13.140625 0.921875 6.890625 3.21875 
L 6.890625 13.375 
Q 12.890625 10.015625 18.65625 8.296875 
Q 24.421875 6.59375 29.984375 6.59375 
Q 38.421875 6.59375 43.015625 9.90625 
Q 47.609375 13.234375 47.609375 19.390625 
Q 47.609375 24.75 44.3125 27.78125 
Q 41.015625 30.8125 33.5 32.328125 
L 27.484375 33.5 
Q 16.453125 35.6875 11.515625 40.375 
Q 6.59375 45.0625 6.59375 53.421875 
Q 6.59375 63.09375 13.40625 68.65625 
Q 20.21875 74.21875 32.171875 74.21875 
Q 37.3125 74.21875 42.625 73.28125 
Q 47.953125 72.359375 53.515625 70.515625 
z
" id="DejaVuSans-83"/>
      </defs>
      <g transform="translate(45.721875 229.958726)scale(0.1 -0.1)">
       <use xlink:href="#DejaVuSans-107"/>
       <use x="57.863281" xlink:href="#DejaVuSans-101"/>
       <use x="119.386719" xlink:href="#DejaVuSans-119"/>
       <use x="201.173828" xlink:href="#DejaVuSans-98"/>
       <use x="264.650391" xlink:href="#DejaVuSans-58"/>
       <use x="298.341797" xlink:href="#DejaVuSans-58"/>
       <use x="332.033203" xlink:href="#DejaVuSans-100"/>
       <use x="395.509766" xlink:href="#DejaVuSans-101"/>
       <use x="457.033203" xlink:href="#DejaVuSans-99"/>
       <use x="512.013672" xlink:href="#DejaVuSans-111"/>
       <use x="573.195312" xlink:href="#DejaVuSans-100"/>
       <use x="636.671875" xlink:href="#DejaVuSans-101"/>
       <use x="698.195312" xlink:href="#DejaVuSans-60"/>
       <use x="781.984375" xlink:href="#DejaVuSans-58"/>
       <use x="815.675781" xlink:href="#DejaVuSans-58"/>
       <use x="849.367188" xlink:href="#DejaVuSans-117"/>
       <use x="912.746094" xlink:href="#DejaVuSans-117"/>
       <use x="976.125" xlink:href="#DejaVuSans-58"/>
       <use x="1009.816406" xlink:href="#DejaVuSans-58"/>
       <use x="1043.507812" xlink:href="#DejaVuSans-85"/>
       <use x="1116.701172" xlink:href="#DejaVuSans-116"/>
       <use x="1155.910156" xlink:href="#DejaVuSans-102"/>
       <use x="1191.115234" xlink:href="#DejaVuSans-85"/>
       <use x="1264.308594" xlink:href="#DejaVuSans-116"/>
       <use x="1303.517578" xlink:href="#DejaVuSans-105"/>
       <use x="1331.300781" xlink:href="#DejaVuSans-108"/>
       <use x="1359.083984" xlink:href="#DejaVuSans-115"/>
       <use x="1411.183594" xlink:href="#DejaVuSans-58"/>
       <use x="1444.875" xlink:href="#DejaVuSans-58"/>
       <use x="1478.566406" xlink:href="#DejaVuSans-83"/>
       <use x="1542.042969" xlink:href="#DejaVuSans-115"/>
       <use x="1594.142578" xlink:href="#DejaVuSans-101"/>
       <use x="1655.666016" xlink:href="#DejaVuSans-66"/>
       <use x="1724.269531" xlink:href="#DejaVuSans-105"/>
       <use x="1752.052734" xlink:href="#DejaVuSans-103"/>
       <use x="1815.529297" xlink:href="#DejaVuSans-84"/>
       <use x="1876.363281" xlink:href="#DejaVuSans-97"/>
       <use x="1937.642578" xlink:href="#DejaVuSans-98"/>
       <use x="2001.119141" xlink:href="#DejaVuSans-108"/>
       <use x="2028.902344" xlink:href="#DejaVuSans-101"/>
       <use x="2090.425781" xlink:href="#DejaVuSans-67"/>
       <use x="2160.25" xlink:href="#DejaVuSans-111"/>
       <use x="2221.431641" xlink:href="#DejaVuSans-110"/>
       <use x="2284.810547" xlink:href="#DejaVuSans-118"/>
       <use x="2343.990234" xlink:href="#DejaVuSans-101"/>
       <use x="2405.513672" xlink:href="#DejaVuSans-114"/>
       <use x="2446.626953" xlink:href="#DejaVuSans-116"/>
       <use x="2485.835938" xlink:href="#DejaVuSans-62"/>
      </g>
     </g>
    </g>
    <g id="ytick_7">
     <g id="line2d_14">
      <g>
       <use style="stroke:#000000;stroke-width:0.8;" x="309.6875" xlink:href="#md0aa5c1a75" y="198.800493"/>
      </g>
     </g>
     <g id="text_15">
      <!-- kewb::decode&lt;::uu::UtfUtils::SseSmallTableConvert&gt; -->
      <g transform="translate(33.935938 202.599712)scale(0.1 -0.1)">
       <use xlink:href="#DejaVuSans-107"/>
       <use x="57.863281" xlink:href="#DejaVuSans-101"/>
       <use x="119.386719" xlink:href="#DejaVuSans-119"/>
       <use x="201.173828" xlink:href="#DejaVuSans-98"/>
       <use x="264.650391" xlink:href="#DejaVuSans-58"/>
       <use x="298.341797" xlink:href="#DejaVuSans-58"/>
       <use x="332.033203" xlink:href="#DejaVuSans-100"/>
       <use x="395.509766" xlink:href="#DejaVuSans-101"/>
       <use x="457.033203" xlink:href="#DejaVuSans-99"/>
       <use x="512.013672" xlink:href="#DejaVuSans-111"/>
       <use x="573.195312" xlink:href="#DejaVuSans-100"/>
       <use x="636.671875" xlink:href="#DejaVuSans-101"/>
       <use x="698.195312" xlink:href="#DejaVuSans-60"/>
       <use x="781.984375" xlink:href="#DejaVuSans-58"/>
       <use x="815.675781" xlink:href="#DejaVuSans-58"/>
       <use x="849.367188" xlink:href="#DejaVuSans-117"/>
       <use x="912.746094" xlink:href="#DejaVuSans-117"/>
       <use x="976.125" xlink:href="#DejaVuSans-58"/>
       <use x="1009.816406" xlink:href="#DejaVuSans-58"/>
       <use x="1043.507812" xlink:href="#DejaVuSans-85"/>
       <use x="1116.701172" xlink:href="#DejaVuSans-116"/>
       <use x="1155.910156" xlink:href="#DejaVuSans-102"/>
       <use x="1191.115234" xlink:href="#DejaVuSans-85"/>
       <use x="1264.308594" xlink:href="#DejaVuSans-116"/>
       <use x="1303.517578" xlink:href="#DejaVuSans-105"/>
       <use x="1331.300781" xlink:href="#DejaVuSans-108"/>
       <use x="1359.083984" xlink:href="#DejaVuSans-115"/>
       <use x="1411.183594" xlink:href="#DejaVuSans-58"/>
       <use x="1444.875" xlink:href="#DejaVuSans-58"/>
       <use x="1478.566406" xlink:href="#DejaVuSans-83"/>
       <use x="1542.042969" xlink:href="#DejaVuSans-115"/>
       <use x="1594.142578" xlink:href="#DejaVuSans-101"/>
       <use x="1655.666016" xlink:href="#DejaVuSans-83"/>
       <use x="1719.142578" xlink:href="#DejaVuSans-109"/>
       <use x="1816.554688" xlink:href="#DejaVuSans-97"/>
       <use x="1877.833984" xlink:href="#DejaVuSans-108"/>
       <use x="1905.617188" xlink:href="#DejaVuSans-108"/>
       <use x="1933.400391" xlink:href="#DejaVuSans-84"/>
       <use x="1994.234375" xlink:href="#DejaVuSans-97"/>
       <use x="2055.513672" xlink:href="#DejaVuSans-98"/>
       <use x="2118.990234" xlink:href="#DejaVuSans-108"/>
       <use x="2146.773438" xlink:href="#DejaVuSans-101"/>
       <use x="2208.296875" xlink:href="#DejaVuSans-67"/>
       <use x="2278.121094" xlink:href="#DejaVuSans-111"/>
       <use x="2339.302734" xlink:href="#DejaVuSans-110"/>
       <use x="2402.681641" xlink:href="#DejaVuSans-118"/>
       <use x="2461.861328" xlink:href="#DejaVuSans-101"/>
       <use x="2523.384766" xlink:href="#DejaVuSans-114"/>
       <use x="2564.498047" xlink:href="#DejaVuSans-116"/>
       <use x="2603.707031" xlink:href="#DejaVuSans-62"/>
      </g>
     </g>
    </g>
    <g id="ytick_8">
     <g id="line2d_15">
      <g>
       <use style="stroke:#000000;stroke-width:0.8;" x="309.6875" xlink:href="#md0aa5c1a75" y="171.441479"/>
      </g>
     </g>
     <g id="text_16">
      <!-- kewb::decode&lt;::uu::UtfUtils::FastSmallTableConvert&gt; -->
      <g transform="translate(30.651563 175.240698)scale(0.1 -0.1)">
       <use xlink:href="#DejaVuSans-107"/>
       <use x="57.863281" xlink:href="#DejaVuSans-101"/>
       <use x="119.386719" xlink:href="#DejaVuSans-119"/>
       <use x="201.173828" xlink:href="#DejaVuSans-98"/>
       <use x="264.650391" xlink:href="#DejaVuSans-58"/>
       <use x="298.341797" xlink:href="#DejaVuSans-58"/>
       <use x="332.033203" xlink:href="#DejaVuSans-100"/>
       <use x="395.509766" xlink:href="#DejaVuSans-101"/>
       <use x="457.033203" xlink:href="#DejaVuSans-99"/>
       <use x="512.013672" xlink:href="#DejaVuSans-111"/>
       <use x="573.195312" xlink:href="#DejaVuSans-100"/>
       <use x="636.671875" xlink:href="#DejaVuSans-101"/>
       <use x="698.195312" xlink:href="#DejaVuSans-60"/>
       <use x="781.984375" xlink:href="#DejaVuSans-58"/>
       <use x="815.675781" xlink:href="#DejaVuSans-58"/>
       <use x="849.367188" xlink:href="#DejaVuSans-117"/>
       <use x="912.746094" xlink:href="#DejaVuSans-117"/>
       <use x="976.125" xlink:href="#DejaVuSans-58"/>
       <use x="1009.816406" xlink:href="#DejaVuSans-58"/>
       <use x="1043.507812" xlink:href="#DejaVuSans-85"/>
       <use x="1116.701172" xlink:href="#DejaVuSans-116"/>
       <use x="1155.910156" xlink:href="#DejaVuSans-102"/>
       <use x="1191.115234" xlink:href="#DejaVuSans-85"/>
       <use x="1264.308594" xlink:href="#DejaVuSans-116"/>
       <use x="1303.517578" xlink:href="#DejaVuSans-105"/>
       <use x="1331.300781" xlink:href="#DejaVuSans-108"/>
       <use x="1359.083984" xlink:href="#DejaVuSans-115"/>
       <use x="1411.183594" xlink:href="#DejaVuSans-58"/>
       <use x="1444.875" xlink:href="#DejaVuSans-58"/>
       <use x="1478.566406" xlink:href="#DejaVuSans-70"/>
       <use x="1535.945312" xlink:href="#DejaVuSans-97"/>
       <use x="1597.224609" xlink:href="#DejaVuSans-115"/>
       <use x="1649.324219" xlink:href="#DejaVuSans-116"/>
       <use x="1688.533203" xlink:href="#DejaVuSans-83"/>
       <use x="1752.009766" xlink:href="#DejaVuSans-109"/>
       <use x="1849.421875" xlink:href="#DejaVuSans-97"/>
       <use x="1910.701172" xlink:href="#DejaVuSans-108"/>
       <use x="1938.484375" xlink:href="#DejaVuSans-108"/>
       <use x="1966.267578" xlink:href="#DejaVuSans-84"/>
       <use x="2027.101562" xlink:href="#DejaVuSans-97"/>
       <use x="2088.380859" xlink:href="#DejaVuSans-98"/>
       <use x="2151.857422" xlink:href="#DejaVuSans-108"/>
       <use x="2179.640625" xlink:href="#DejaVuSans-101"/>
       <use x="2241.164062" xlink:href="#DejaVuSans-67"/>
       <use x="2310.988281" xlink:href="#DejaVuSans-111"/>
       <use x="2372.169922" xlink:href="#DejaVuSans-110"/>
       <use x="2435.548828" xlink:href="#DejaVuSans-118"/>
       <use x="2494.728516" xlink:href="#DejaVuSans-101"/>
       <use x="2556.251953" xlink:href="#DejaVuSans-114"/>
       <use x="2597.365234" xlink:href="#DejaVuSans-116"/>
       <use x="2636.574219" xlink:href="#DejaVuSans-62"/>
      </g>
     </g>
    </g>
    <g id="ytick_9">
     <g id="line2d_16">
      <g>
       <use style="stroke:#000000;stroke-width:0.8;" x="309.6875" xlink:href="#md0aa5c1a75" y="144.082465"/>
      </g>
     </g>
     <g id="text_17">
      <!-- kewb::decode&lt;::uu::UtfUtils::BasicBigTableConvert&gt; -->
      <g transform="translate(36.957813 147.881684)scale(0.1 -0.1)">
       <use xlink:href="#DejaVuSans-107"/>
       <use x="57.863281" xlink:href="#DejaVuSans-101"/>
       <use x="119.386719" xlink:href="#DejaVuSans-119"/>
       <use x="201.173828" xlink:href="#DejaVuSans-98"/>
       <use x="264.650391" xlink:href="#DejaVuSans-58"/>
       <use x="298.341797" xlink:href="#DejaVuSans-58"/>
       <use x="332.033203" xlink:href="#DejaVuSans-100"/>
       <use x="395.509766" xlink:href="#DejaVuSans-101"/>
       <use x="457.033203" xlink:href="#DejaVuSans-99"/>
       <use x="512.013672" xlink:href="#DejaVuSans-111"/>
       <use x="573.195312" xlink:href="#DejaVuSans-100"/>
       <use x="636.671875" xlink:href="#DejaVuSans-101"/>
       <use x="698.195312" xlink:href="#DejaVuSans-60"/>
       <use x="781.984375" xlink:href="#DejaVuSans-58"/>
       <use x="815.675781" xlink:href="#DejaVuSans-58"/>
       <use x="849.367188" xlink:href="#DejaVuSans-117"/>
       <use x="912.746094" xlink:href="#DejaVuSans-117"/>
       <use x="976.125" xlink:href="#DejaVuSans-58"/>
       <use x="1009.816406" xlink:href="#DejaVuSans-58"/>
       <use x="1043.507812" xlink:href="#DejaVuSans-85"/>
       <use x="1116.701172" xlink:href="#DejaVuSans-116"/>
       <use x="1155.910156" xlink:href="#DejaVuSans-102"/>
       <use x="1191.115234" xlink:href="#DejaVuSans-85"/>
       <use x="1264.308594" xlink:href="#DejaVuSans-116"/>
       <use x="1303.517578" xlink:href="#DejaVuSans-105"/>
       <use x="1331.300781" xlink:href="#DejaVuSans-108"/>
       <use x="1359.083984" xlink:href="#DejaVuSans-115"/>
       <use x="1411.183594" xlink:href="#DejaVuSans-58"/>
       <use x="1444.875" xlink:href="#DejaVuSans-58"/>
       <use x="1478.566406" xlink:href="#DejaVuSans-66"/>
       <use x="1547.169922" xlink:href="#DejaVuSans-97"/>
       <use x="1608.449219" xlink:href="#DejaVuSans-115"/>
       <use x="1660.548828" xlink:href="#DejaVuSans-105"/>
       <use x="1688.332031" xlink:href="#DejaVuSans-99"/>
       <use x="1743.3125" xlink:href="#DejaVuSans-66"/>
       <use x="1811.916016" xlink:href="#DejaVuSans-105"/>
       <use x="1839.699219" xlink:href="#DejaVuSans-103"/>
       <use x="1903.175781" xlink:href="#DejaVuSans-84"/>
       <use x="1964.009766" xlink:href="#DejaVuSans-97"/>
       <use x="2025.289062" xlink:href="#DejaVuSans-98"/>
       <use x="2088.765625" xlink:href="#DejaVuSans-108"/>
       <use x="2116.548828" xlink:href="#DejaVuSans-101"/>
       <use x="2178.072266" xlink:href="#DejaVuSans-67"/>
       <use x="2247.896484" xlink:href="#DejaVuSans-111"/>
       <use x="2309.078125" xlink:href="#DejaVuSans-110"/>
       <use x="2372.457031" xlink:href="#DejaVuSans-118"/>
       <use x="2431.636719" xlink:href="#DejaVuSans-101"/>
       <use x="2493.160156" xlink:href="#DejaVuSans-114"/>
       <use x="2534.273438" xlink:href="#DejaVuSans-116"/>
       <use x="2573.482422" xlink:href="#DejaVuSans-62"/>
      </g>
     </g>
    </g>
    <g id="ytick_10">
     <g id="line2d_17">
      <g>
       <use style="stroke:#000000;stroke-width:0.8;" x="309.6875" xlink:href="#md0aa5c1a75" y="116.723451"/>
      </g>
     </g>
     <g id="text_18">
      <!-- decode&lt;mk::decode_next&lt;mk::kewb::decode_next&gt;&gt; -->
      <g transform="translate(26.910938 120.52267)scale(0.1 -0.1)">
       <use xlink:href="#DejaVuSans-100"/>
       <use x="63.476562" xlink:href="#DejaVuSans-101"/>
       <use x="125" xlink:href="#DejaVuSans-99"/>
       <use x="179.980469" xlink:href="#DejaVuSans-111"/>
       <use x="241.162109" xlink:href="#DejaVuSans-100"/>
       <use x="304.638672" xlink:href="#DejaVuSans-101"/>
       <use x="366.162109" xlink:href="#DejaVuSans-60"/>
       <use x="449.951172" xlink:href="#DejaVuSans-109"/>
       <use x="547.363281" xlink:href="#DejaVuSans-107"/>
       <use x="605.273438" xlink:href="#DejaVuSans-58"/>
       <use x="638.964844" xlink:href="#DejaVuSans-58"/>
       <use x="672.65625" xlink:href="#DejaVuSans-100"/>
       <use x="736.132812" xlink:href="#DejaVuSans-101"/>
       <use x="797.65625" xlink:href="#DejaVuSans-99"/>
       <use x="852.636719" xlink:href="#DejaVuSans-111"/>
       <use x="913.818359" xlink:href="#DejaVuSans-100"/>
       <use x="977.294922" xlink:href="#DejaVuSans-101"/>
       <use x="1038.818359" xlink:href="#DejaVuSans-95"/>
       <use x="1088.818359" xlink:href="#DejaVuSans-110"/>
       <use x="1152.197266" xlink:href="#DejaVuSans-101"/>
       <use x="1213.705078" xlink:href="#DejaVuSans-120"/>
       <use x="1272.884766" xlink:href="#DejaVuSans-116"/>
       <use x="1312.09375" xlink:href="#DejaVuSans-60"/>
       <use x="1395.882812" xlink:href="#DejaVuSans-109"/>
       <use x="1493.294922" xlink:href="#DejaVuSans-107"/>
       <use x="1551.205078" xlink:href="#DejaVuSans-58"/>
       <use x="1584.896484" xlink:href="#DejaVuSans-58"/>
       <use x="1618.587891" xlink:href="#DejaVuSans-107"/>
       <use x="1676.451172" xlink:href="#DejaVuSans-101"/>
       <use x="1737.974609" xlink:href="#DejaVuSans-119"/>
       <use x="1819.761719" xlink:href="#DejaVuSans-98"/>
       <use x="1883.238281" xlink:href="#DejaVuSans-58"/>
       <use x="1916.929688" xlink:href="#DejaVuSans-58"/>
       <use x="1950.621094" xlink:href="#DejaVuSans-100"/>
       <use x="2014.097656" xlink:href="#DejaVuSans-101"/>
       <use x="2075.621094" xlink:href="#DejaVuSans-99"/>
       <use x="2130.601562" xlink:href="#DejaVuSans-111"/>
       <use x="2191.783203" xlink:href="#DejaVuSans-100"/>
       <use x="2255.259766" xlink:href="#DejaVuSans-101"/>
       <use x="2316.783203" xlink:href="#DejaVuSans-95"/>
       <use x="2366.783203" xlink:href="#DejaVuSans-110"/>
       <use x="2430.162109" xlink:href="#DejaVuSans-101"/>
       <use x="2491.669922" xlink:href="#DejaVuSans-120"/>
       <use x="2550.849609" xlink:href="#DejaVuSans-116"/>
       <use x="2590.058594" xlink:href="#DejaVuSans-62"/>
       <use x="2673.847656" xlink:href="#DejaVuSans-62"/>
      </g>
     </g>
    </g>
    <g id="ytick_11">
     <g id="line2d_18">
      <g>
       <use style="stroke:#000000;stroke-width:0.8;" x="309.6875" xlink:href="#md0aa5c1a75" y="89.364438"/>
      </g>
     </g>
     <g id="text_19">
      <!-- icu::decode&lt;::u_strFromUTF8&gt; -->
      <g transform="translate(145.392188 93.163656)scale(0.1 -0.1)">
       <use xlink:href="#DejaVuSans-105"/>
       <use x="27.783203" xlink:href="#DejaVuSans-99"/>
       <use x="82.763672" xlink:href="#DejaVuSans-117"/>
       <use x="146.142578" xlink:href="#DejaVuSans-58"/>
       <use x="179.833984" xlink:href="#DejaVuSans-58"/>
       <use x="213.525391" xlink:href="#DejaVuSans-100"/>
       <use x="277.001953" xlink:href="#DejaVuSans-101"/>
       <use x="338.525391" xlink:href="#DejaVuSans-99"/>
       <use x="393.505859" xlink:href="#DejaVuSans-111"/>
       <use x="454.6875" xlink:href="#DejaVuSans-100"/>
       <use x="518.164062" xlink:href="#DejaVuSans-101"/>
       <use x="579.6875" xlink:href="#DejaVuSans-60"/>
       <use x="663.476562" xlink:href="#DejaVuSans-58"/>
       <use x="697.167969" xlink:href="#DejaVuSans-58"/>
       <use x="730.859375" xlink:href="#DejaVuSans-117"/>
       <use x="794.238281" xlink:href="#DejaVuSans-95"/>
       <use x="844.238281" xlink:href="#DejaVuSans-115"/>
       <use x="896.337891" xlink:href="#DejaVuSans-116"/>
       <use x="935.546875" xlink:href="#DejaVuSans-114"/>
       <use x="976.660156" xlink:href="#DejaVuSans-70"/>
       <use x="1034.070312" xlink:href="#DejaVuSans-114"/>
       <use x="1075.152344" xlink:href="#DejaVuSans-111"/>
       <use x="1136.333984" xlink:href="#DejaVuSans-109"/>
       <use x="1233.746094" xlink:href="#DejaVuSans-85"/>
       <use x="1306.939453" xlink:href="#DejaVuSans-84"/>
       <use x="1368.023438" xlink:href="#DejaVuSans-70"/>
       <use x="1425.542969" xlink:href="#DejaVuSans-56"/>
       <use x="1489.166016" xlink:href="#DejaVuSans-62"/>
      </g>
     </g>
    </g>
    <g id="ytick_12">
     <g id="line2d_19">
      <g>
       <use style="stroke:#000000;stroke-width:0.8;" x="309.6875" xlink:href="#md0aa5c1a75" y="62.005424"/>
      </g>
     </g>
     <g id="text_20">
      <!-- kewb::decode&lt;::uu::UtfUtils::BasicSmallTableConvert&gt; -->
      <g transform="translate(25.171875 65.804642)scale(0.1 -0.1)">
       <use xlink:href="#DejaVuSans-107"/>
       <use x="57.863281" xlink:href="#DejaVuSans-101"/>
       <use x="119.386719" xlink:href="#DejaVuSans-119"/>
       <use x="201.173828" xlink:href="#DejaVuSans-98"/>
       <use x="264.650391" xlink:href="#DejaVuSans-58"/>
       <use x="298.341797" xlink:href="#DejaVuSans-58"/>
       <use x="332.033203" xlink:href="#DejaVuSans-100"/>
       <use x="395.509766" xlink:href="#DejaVuSans-101"/>
       <use x="457.033203" xlink:href="#DejaVuSans-99"/>
       <use x="512.013672" xlink:href="#DejaVuSans-111"/>
       <use x="573.195312" xlink:href="#DejaVuSans-100"/>
       <use x="636.671875" xlink:href="#DejaVuSans-101"/>
       <use x="698.195312" xlink:href="#DejaVuSans-60"/>
       <use x="781.984375" xlink:href="#DejaVuSans-58"/>
       <use x="815.675781" xlink:href="#DejaVuSans-58"/>
       <use x="849.367188" xlink:href="#DejaVuSans-117"/>
       <use x="912.746094" xlink:href="#DejaVuSans-117"/>
       <use x="976.125" xlink:href="#DejaVuSans-58"/>
       <use x="1009.816406" xlink:href="#DejaVuSans-58"/>
       <use x="1043.507812" xlink:href="#DejaVuSans-85"/>
       <use x="1116.701172" xlink:href="#DejaVuSans-116"/>
       <use x="1155.910156" xlink:href="#DejaVuSans-102"/>
       <use x="1191.115234" xlink:href="#DejaVuSans-85"/>
       <use x="1264.308594" xlink:href="#DejaVuSans-116"/>
       <use x="1303.517578" xlink:href="#DejaVuSans-105"/>
       <use x="1331.300781" xlink:href="#DejaVuSans-108"/>
       <use x="1359.083984" xlink:href="#DejaVuSans-115"/>
       <use x="1411.183594" xlink:href="#DejaVuSans-58"/>
       <use x="1444.875" xlink:href="#DejaVuSans-58"/>
       <use x="1478.566406" xlink:href="#DejaVuSans-66"/>
       <use x="1547.169922" xlink:href="#DejaVuSans-97"/>
       <use x="1608.449219" xlink:href="#DejaVuSans-115"/>
       <use x="1660.548828" xlink:href="#DejaVuSans-105"/>
       <use x="1688.332031" xlink:href="#DejaVuSans-99"/>
       <use x="1743.3125" xlink:href="#DejaVuSans-83"/>
       <use x="1806.789062" xlink:href="#DejaVuSans-109"/>
       <use x="1904.201172" xlink:href="#DejaVuSans-97"/>
       <use x="1965.480469" xlink:href="#DejaVuSans-108"/>
       <use x="1993.263672" xlink:href="#DejaVuSans-108"/>
       <use x="2021.046875" xlink:href="#DejaVuSans-84"/>
       <use x="2081.880859" xlink:href="#DejaVuSans-97"/>
       <use x="2143.160156" xlink:href="#DejaVuSans-98"/>
       <use x="2206.636719" xlink:href="#DejaVuSans-108"/>
       <use x="2234.419922" xlink:href="#DejaVuSans-101"/>
       <use x="2295.943359" xlink:href="#DejaVuSans-67"/>
       <use x="2365.767578" xlink:href="#DejaVuSans-111"/>
       <use x="2426.949219" xlink:href="#DejaVuSans-110"/>
       <use x="2490.328125" xlink:href="#DejaVuSans-118"/>
       <use x="2549.507812" xlink:href="#DejaVuSans-101"/>
       <use x="2611.03125" xlink:href="#DejaVuSans-114"/>
       <use x="2652.144531" xlink:href="#DejaVuSans-116"/>
       <use x="2691.353516" xlink:href="#DejaVuSans-62"/>
      </g>
     </g>
    </g>
    <g id="text_21">
     <!-- decoder -->
     <g transform="translate(19.092188 232.845625)rotate(-90)scale(0.1 -0.1)">
      <use xlink:href="#DejaVuSans-100"/>
      <use x="63.476562" xlink:href="#DejaVuSans-101"/>
      <use x="125" xlink:href="#DejaVuSans-99"/>
      <use x="179.980469" xlink:href="#DejaVuSans-111"/>
      <use x="241.162109" xlink:href="#DejaVuSans-100"/>
      <use x="304.638672" xlink:href="#DejaVuSans-101"/>
      <use x="366.162109" xlink:href="#DejaVuSans-114"/>
     </g>
    </g>
   </g>
   <g id="LineCollection_1">
    <path clip-path="url(#pd260ba83a4)" d="M 411.652148 362.954576 
L 411.668507 362.954576 
" style="fill:none;stroke:#000000;stroke-width:1.5;"/>
    <path clip-path="url(#pd260ba83a4)" d="M 447.446728 335.595562 
L 447.455124 335.595562 
" style="fill:none;stroke:#000000;stroke-width:1.5;"/>
    <path clip-path="url(#pd260ba83a4)" d="M 502.621358 308.236549 
L 502.633102 308.236549 
" style="fill:none;stroke:#000000;stroke-width:1.5;"/>
    <path clip-path="url(#pd260ba83a4)" d="M 503.027467 280.877535 
L 503.039634 280.877535 
" style="fill:none;stroke:#000000;stroke-width:1.5;"/>
    <path clip-path="url(#pd260ba83a4)" d="M 503.796225 253.518521 
L 503.806536 253.518521 
" style="fill:none;stroke:#000000;stroke-width:1.5;"/>
    <path clip-path="url(#pd260ba83a4)" d="M 511.320617 226.159507 
L 511.336076 226.159507 
" style="fill:none;stroke:#000000;stroke-width:1.5;"/>
    <path clip-path="url(#pd260ba83a4)" d="M 514.836962 198.800493 
L 514.856882 198.800493 
" style="fill:none;stroke:#000000;stroke-width:1.5;"/>
    <path clip-path="url(#pd260ba83a4)" d="M 523.818528 171.441479 
L 523.833903 171.441479 
" style="fill:none;stroke:#000000;stroke-width:1.5;"/>
    <path clip-path="url(#pd260ba83a4)" d="M 528.658301 144.082465 
L 528.686886 144.082465 
" style="fill:none;stroke:#000000;stroke-width:1.5;"/>
    <path clip-path="url(#pd260ba83a4)" d="M 528.811116 116.723451 
L 528.848338 116.723451 
" style="fill:none;stroke:#000000;stroke-width:1.5;"/>
    <path clip-path="url(#pd260ba83a4)" d="M 529.082594 89.364438 
L 529.115207 89.364438 
" style="fill:none;stroke:#000000;stroke-width:1.5;"/>
    <path clip-path="url(#pd260ba83a4)" d="M 546.516781 62.005424 
L 546.548396 62.005424 
" style="fill:none;stroke:#000000;stroke-width:1.5;"/>
   </g>
   <g id="patch_15">
    <path d="M 309.6875 390.04 
L 309.6875 34.92 
" style="fill:none;stroke:#000000;stroke-linecap:square;stroke-linejoin:miter;stroke-width:0.8;"/>
   </g>
   <g id="patch_16">
    <path d="M 558.391441 390.04 
L 558.391441 34.92 
" style="fill:none;stroke:#000000;stroke-linecap:square;stroke-linejoin:miter;stroke-width:0.8;"/>
   </g>
   <g id="patch_17">
    <path d="M 309.6875 390.04 
L 558.391441 390.04 
" style="fill:none;stroke:#000000;stroke-linecap:square;stroke-linejoin:miter;stroke-width:0.8;"/>
   </g>
   <g id="patch_18">
    <path d="M 309.6875 34.92 
L 558.391441 34.92 
" style="fill:none;stroke:#000000;stroke-linecap:square;stroke-linejoin:miter;stroke-width:0.8;"/>
   </g>
  </g>
  <g id="text_22">
   <!-- clang++ 8.0 C++17 Xeon E3-1230 8 CPUs @ 3600 MHz: wiki/Japanese_language-ja -->
   <defs>
    <path d="M 46 62.703125 
L 46 35.5 
L 73.1875 35.5 
L 73.1875 27.203125 
L 46 27.203125 
L 46 0 
L 37.796875 0 
L 37.796875 27.203125 
L 10.59375 27.203125 
L 10.59375 35.5 
L 37.796875 35.5 
L 37.796875 62.703125 
z
" id="DejaVuSans-43"/>
    <path d="M 8.203125 72.90625 
L 55.078125 72.90625 
L 55.078125 68.703125 
L 28.609375 0 
L 18.3125 0 
L 43.21875 64.59375 
L 8.203125 64.59375 
z
" id="DejaVuSans-55"/>
    <path d="M 6.296875 72.90625 
L 16.890625 72.90625 
L 35.015625 45.796875 
L 53.21875 72.90625 
L 63.8125 72.90625 
L 40.375 37.890625 
L 65.375 0 
L 54.78125 0 
L 34.28125 31 
L 13.625 0 
L 2.984375 0 
L 29 38.921875 
z
" id="DejaVuSans-88"/>
    <path d="M 9.8125 72.90625 
L 55.90625 72.90625 
L 55.90625 64.59375 
L 19.671875 64.59375 
L 19.671875 43.015625 
L 54.390625 43.015625 
L 54.390625 34.71875 
L 19.671875 34.71875 
L 19.671875 8.296875 
L 56.78125 8.296875 
L 56.78125 0 
L 9.8125 0 
z
" id="DejaVuSans-69"/>
    <path d="M 4.890625 31.390625 
L 31.203125 31.390625 
L 31.203125 23.390625 
L 4.890625 23.390625 
z
" id="DejaVuSans-45"/>
    <path d="M 19.671875 64.796875 
L 19.671875 37.40625 
L 32.078125 37.40625 
Q 38.96875 37.40625 42.71875 40.96875 
Q 46.484375 44.53125 46.484375 51.125 
Q 46.484375 57.671875 42.71875 61.234375 
Q 38.96875 64.796875 32.078125 64.796875 
z
M 9.8125 72.90625 
L 32.078125 72.90625 
Q 44.34375 72.90625 50.609375 67.359375 
Q 56.890625 61.8125 56.890625 51.125 
Q 56.890625 40.328125 50.609375 34.8125 
Q 44.34375 29.296875 32.078125 29.296875 
L 19.671875 29.296875 
L 19.671875 0 
L 9.8125 0 
z
" id="DejaVuSans-80"/>
    <path d="M 37.203125 26.21875 
Q 37.203125 19.234375 40.671875 15.25 
Q 44.140625 11.28125 50.203125 11.28125 
Q 56.203125 11.28125 59.640625 15.28125 
Q 63.09375 19.28125 63.09375 26.21875 
Q 63.09375 33.0625 59.578125 37.078125 
Q 56.0625 41.109375 50.09375 41.109375 
Q 44.1875 41.109375 40.6875 37.109375 
Q 37.203125 33.109375 37.203125 26.21875 
z
M 63.8125 11.625 
Q 60.890625 7.859375 57.109375 6.078125 
Q 53.328125 4.296875 48.296875 4.296875 
Q 39.890625 4.296875 34.640625 10.375 
Q 29.390625 16.453125 29.390625 26.21875 
Q 29.390625 35.984375 34.65625 42.078125 
Q 39.9375 48.1875 48.296875 48.1875 
Q 53.328125 48.1875 57.125 46.359375 
Q 60.9375 44.53125 63.8125 40.828125 
L 63.8125 47.21875 
L 70.796875 47.21875 
L 70.796875 11.28125 
Q 77.9375 12.359375 81.953125 17.796875 
Q 85.984375 23.25 85.984375 31.890625 
Q 85.984375 37.109375 84.4375 41.703125 
Q 82.90625 46.296875 79.78125 50.203125 
Q 74.703125 56.59375 67.40625 59.984375 
Q 60.109375 63.375 51.515625 63.375 
Q 45.515625 63.375 39.984375 61.78125 
Q 34.46875 60.203125 29.78125 57.078125 
Q 22.125 52.09375 17.796875 44.015625 
Q 13.484375 35.9375 13.484375 26.515625 
Q 13.484375 18.75 16.28125 11.953125 
Q 19.09375 5.171875 24.421875 0 
Q 29.546875 -5.078125 36.28125 -7.734375 
Q 43.015625 -10.40625 50.6875 -10.40625 
Q 56.984375 -10.40625 63.0625 -8.28125 
Q 69.140625 -6.15625 74.21875 -2.203125 
L 78.609375 -7.625 
Q 72.515625 -12.359375 65.3125 -14.875 
Q 58.109375 -17.390625 50.6875 -17.390625 
Q 41.65625 -17.390625 33.640625 -14.1875 
Q 25.640625 -10.984375 19.390625 -4.890625 
Q 13.140625 1.21875 9.859375 9.25 
Q 6.59375 17.28125 6.59375 26.515625 
Q 6.59375 35.40625 9.90625 43.453125 
Q 13.234375 51.515625 19.390625 57.625 
Q 25.6875 63.8125 33.9375 67.109375 
Q 42.1875 70.40625 51.421875 70.40625 
Q 61.765625 70.40625 70.625 66.15625 
Q 79.5 61.921875 85.5 54.109375 
Q 89.15625 49.3125 91.078125 43.703125 
Q 93.015625 38.09375 93.015625 32.078125 
Q 93.015625 19.234375 85.25 11.8125 
Q 77.484375 4.390625 63.8125 4.109375 
z
" id="DejaVuSans-64"/>
    <path d="M 33.015625 40.375 
Q 26.375 40.375 22.484375 35.828125 
Q 18.609375 31.296875 18.609375 23.390625 
Q 18.609375 15.53125 22.484375 10.953125 
Q 26.375 6.390625 33.015625 6.390625 
Q 39.65625 6.390625 43.53125 10.953125 
Q 47.40625 15.53125 47.40625 23.390625 
Q 47.40625 31.296875 43.53125 35.828125 
Q 39.65625 40.375 33.015625 40.375 
z
M 52.59375 71.296875 
L 52.59375 62.3125 
Q 48.875 64.0625 45.09375 64.984375 
Q 41.3125 65.921875 37.59375 65.921875 
Q 27.828125 65.921875 22.671875 59.328125 
Q 17.53125 52.734375 16.796875 39.40625 
Q 19.671875 43.65625 24.015625 45.921875 
Q 28.375 48.1875 33.59375 48.1875 
Q 44.578125 48.1875 50.953125 41.515625 
Q 57.328125 34.859375 57.328125 23.390625 
Q 57.328125 12.15625 50.6875 5.359375 
Q 44.046875 -1.421875 33.015625 -1.421875 
Q 20.359375 -1.421875 13.671875 8.265625 
Q 6.984375 17.96875 6.984375 36.375 
Q 6.984375 53.65625 15.1875 63.9375 
Q 23.390625 74.21875 37.203125 74.21875 
Q 40.921875 74.21875 44.703125 73.484375 
Q 48.484375 72.75 52.59375 71.296875 
z
" id="DejaVuSans-54"/>
    <path d="M 9.8125 72.90625 
L 24.515625 72.90625 
L 43.109375 23.296875 
L 61.8125 72.90625 
L 76.515625 72.90625 
L 76.515625 0 
L 66.890625 0 
L 66.890625 64.015625 
L 48.09375 14.015625 
L 38.1875 14.015625 
L 19.390625 64.015625 
L 19.390625 0 
L 9.8125 0 
z
" id="DejaVuSans-77"/>
    <path d="M 9.8125 72.90625 
L 19.671875 72.90625 
L 19.671875 43.015625 
L 55.515625 43.015625 
L 55.515625 72.90625 
L 65.375 72.90625 
L 65.375 0 
L 55.515625 0 
L 55.515625 34.71875 
L 19.671875 34.71875 
L 19.671875 0 
L 9.8125 0 
z
" id="DejaVuSans-72"/>
    <path d="M 5.515625 54.6875 
L 48.1875 54.6875 
L 48.1875 46.484375 
L 14.40625 7.171875 
L 48.1875 7.171875 
L 48.1875 0 
L 4.296875 0 
L 4.296875 8.203125 
L 38.09375 47.515625 
L 5.515625 47.515625 
z
" id="DejaVuSans-122"/>
    <path d="M 25.390625 72.90625 
L 33.6875 72.90625 
L 8.296875 -9.28125 
L 0 -9.28125 
z
" id="DejaVuSans-47"/>
    <path d="M 9.8125 72.90625 
L 19.671875 72.90625 
L 19.671875 5.078125 
Q 19.671875 -8.109375 14.671875 -14.0625 
Q 9.671875 -20.015625 -1.421875 -20.015625 
L -5.171875 -20.015625 
L -5.171875 -11.71875 
L -2.09375 -11.71875 
Q 4.4375 -11.71875 7.125 -8.046875 
Q 9.8125 -4.390625 9.8125 5.078125 
z
" id="DejaVuSans-74"/>
    <path d="M 9.421875 54.6875 
L 18.40625 54.6875 
L 18.40625 -0.984375 
Q 18.40625 -11.421875 14.421875 -16.109375 
Q 10.453125 -20.796875 1.609375 -20.796875 
L -1.8125 -20.796875 
L -1.8125 -13.1875 
L 0.59375 -13.1875 
Q 5.71875 -13.1875 7.5625 -10.8125 
Q 9.421875 -8.453125 9.421875 -0.984375 
z
M 9.421875 75.984375 
L 18.40625 75.984375 
L 18.40625 64.59375 
L 9.421875 64.59375 
z
" id="DejaVuSans-106"/>
   </defs>
   <g transform="translate(36.1875 17.758125)scale(0.12 -0.12)">
    <use xlink:href="#DejaVuSans-99"/>
    <use x="54.980469" xlink:href="#DejaVuSans-108"/>
    <use x="82.763672" xlink:href="#DejaVuSans-97"/>
    <use x="144.042969" xlink:href="#DejaVuSans-110"/>
    <use x="207.421875" xlink:href="#DejaVuSans-103"/>
    <use x="270.898438" xlink:href="#DejaVuSans-43"/>
    <use x="354.6875" xlink:href="#DejaVuSans-43"/>
    <use x="438.476562" xlink:href="#DejaVuSans-32"/>
    <use x="470.263672" xlink:href="#DejaVuSans-56"/>
    <use x="533.886719" xlink:href="#DejaVuSans-46"/>
    <use x="565.673828" xlink:href="#DejaVuSans-48"/>
    <use x="629.296875" xlink:href="#DejaVuSans-32"/>
    <use x="661.083984" xlink:href="#DejaVuSans-67"/>
    <use x="730.908203" xlink:href="#DejaVuSans-43"/>
    <use x="814.697266" xlink:href="#DejaVuSans-43"/>
    <use x="898.486328" xlink:href="#DejaVuSans-49"/>
    <use x="962.109375" xlink:href="#DejaVuSans-55"/>
    <use x="1025.732422" xlink:href="#DejaVuSans-32"/>
    <use x="1057.519531" xlink:href="#DejaVuSans-88"/>
    <use x="1125.962891" xlink:href="#DejaVuSans-101"/>
    <use x="1187.486328" xlink:href="#DejaVuSans-111"/>
    <use x="1248.667969" xlink:href="#DejaVuSans-110"/>
    <use x="1312.046875" xlink:href="#DejaVuSans-32"/>
    <use x="1343.833984" xlink:href="#DejaVuSans-69"/>
    <use x="1407.017578" xlink:href="#DejaVuSans-51"/>
    <use x="1470.640625" xlink:href="#DejaVuSans-45"/>
    <use x="1506.724609" xlink:href="#DejaVuSans-49"/>
    <use x="1570.347656" xlink:href="#DejaVuSans-50"/>
    <use x="1633.970703" xlink:href="#DejaVuSans-51"/>
    <use x="1697.59375" xlink:href="#DejaVuSans-48"/>
    <use x="1761.216797" xlink:href="#DejaVuSans-32"/>
    <use x="1793.003906" xlink:href="#DejaVuSans-56"/>
    <use x="1856.626953" xlink:href="#DejaVuSans-32"/>
    <use x="1888.414062" xlink:href="#DejaVuSans-67"/>
    <use x="1958.238281" xlink:href="#DejaVuSans-80"/>
    <use x="2018.541016" xlink:href="#DejaVuSans-85"/>
    <use x="2091.734375" xlink:href="#DejaVuSans-115"/>
    <use x="2143.833984" xlink:href="#DejaVuSans-32"/>
    <use x="2175.621094" xlink:href="#DejaVuSans-64"/>
    <use x="2275.621094" xlink:href="#DejaVuSans-32"/>
    <use x="2307.408203" xlink:href="#DejaVuSans-51"/>
    <use x="2371.03125" xlink:href="#DejaVuSans-54"/>
    <use x="2434.654297" xlink:href="#DejaVuSans-48"/>
    <use x="2498.277344" xlink:href="#DejaVuSans-48"/>
    <use x="2561.900391" xlink:href="#DejaVuSans-32"/>
    <use x="2593.6875" xlink:href="#DejaVuSans-77"/>
    <use x="2679.966797" xlink:href="#DejaVuSans-72"/>
    <use x="2755.162109" xlink:href="#DejaVuSans-122"/>
    <use x="2807.652344" xlink:href="#DejaVuSans-58"/>
    <use x="2841.34375" xlink:href="#DejaVuSans-32"/>
    <use x="2873.130859" xlink:href="#DejaVuSans-119"/>
    <use x="2954.917969" xlink:href="#DejaVuSans-105"/>
    <use x="2982.701172" xlink:href="#DejaVuSans-107"/>
    <use x="3040.611328" xlink:href="#DejaVuSans-105"/>
    <use x="3068.394531" xlink:href="#DejaVuSans-47"/>
    <use x="3102.085938" xlink:href="#DejaVuSans-74"/>
    <use x="3131.578125" xlink:href="#DejaVuSans-97"/>
    <use x="3192.857422" xlink:href="#DejaVuSans-112"/>
    <use x="3256.333984" xlink:href="#DejaVuSans-97"/>
    <use x="3317.613281" xlink:href="#DejaVuSans-110"/>
    <use x="3380.992188" xlink:href="#DejaVuSans-101"/>
    <use x="3442.515625" xlink:href="#DejaVuSans-115"/>
    <use x="3494.615234" xlink:href="#DejaVuSans-101"/>
    <use x="3556.138672" xlink:href="#DejaVuSans-95"/>
    <use x="3606.138672" xlink:href="#DejaVuSans-108"/>
    <use x="3633.921875" xlink:href="#DejaVuSans-97"/>
    <use x="3695.201172" xlink:href="#DejaVuSans-110"/>
    <use x="3758.580078" xlink:href="#DejaVuSans-103"/>
    <use x="3822.056641" xlink:href="#DejaVuSans-117"/>
    <use x="3885.435547" xlink:href="#DejaVuSans-97"/>
    <use x="3946.714844" xlink:href="#DejaVuSans-103"/>
    <use x="4010.191406" xlink:href="#DejaVuSans-101"/>
    <use x="4071.714844" xlink:href="#DejaVuSans-45"/>
    <use x="4107.798828" xlink:href="#DejaVuSans-106"/>
    <use x="4135.582031" xlink:href="#DejaVuSans-97"/>
   </g>
  </g>
 </g>
 <defs>
  <clipPath id="pd260ba83a4">
   <rect height="355.12" width="248.703941" x="309.6875" y="34.92"/>
  </clipPath>
 </defs>
</svg>
